00002000 A __alt_mem_onchip_mem
00002000 T __reset
0000200c T _exit
0000200c T exit
00002020 A __flash_exceptions_start
00002020 A __ram_exceptions_end
00002020 A __ram_exceptions_start
00002020 T _start
00002058 t alt_after_alt_main
0000205c T main
000020a0 T alt_load
00002120 t alt_load_section
0000218c T alt_main
000021cc T usleep
000021fc T alt_irq_init
00002230 T alt_sys_init
0000224c T alt_busy_sleep
000023a8 T alt_dcache_flush_all
000023c4 T alt_icache_flush_all
000023e0 T altera_nios2_qsys_irq_init
00002400 t udivmodsi4
0000247c T __divsi3
000024dc T __modsi3
0000253c T __udivsi3
00002544 T __umodsi3
0000254c T __mulsi3
00002584 A __bss_start
00002584 A __flash_rodata_start
00002584 A __flash_rwdata_start
00002584 A __ram_rodata_end
00002584 A __ram_rodata_start
00002584 A __ram_rwdata_end
00002584 A __ram_rwdata_start
00002584 A _edata
00002584 b count
00002588 B alt_argc
0000258c B alt_argv
00002590 B alt_envp
00002594 A __alt_stack_base
00002594 A __bss_end
00002594 A _end
00002594 A end
00004000 A __alt_data_end
00004000 A __alt_stack_pointer
0000a584 A _gp
