Steins;Gate|SHAFT|5|2|9.1|8.6|6|4|2011
Higurashi no Naku Koro ni|Studio DEEN|121|2|8.7|8.5|5|4|2006
Kill la Kill|Trigger|374|1|8.3|8.5|4|10|2013
Elfen Lied|Arms|97|1|8.7|8.6|25|7|2004
Code Geass|Sunrise|2|8|9.2|7.6|6|10|2006
Overlord|MAD House|401|3|8.3|7.5|7|7|2015