^D:\DOWNLOADS\УЧЕБА\CBL\PROGALET\LABS\LABA1.2.9\RELEASE\LABANINE.OBJ
D:\DOWNLOADS\учеба\CBL\PROGALET\LABS\LABA1.2.9\RELEASE\LABA1.2.9.EXE
D:\DOWNLOADS\УЧЕБА\CBL\PROGALET\LABS\LABA1.2.9\RELEASE\LABA1.2.9.PDB
