Analysis & Synthesis report for laba_one
Wed Oct 28 01:24:18 2020
Quartus II 64-Bit Version 13.0.1 Build 232 06/12/2013 Service Pack 1 SJ Web Edition


---------------------
; Table of Contents ;
---------------------
  1. Legal Notice
  2. Analysis & Synthesis Summary
  3. Analysis & Synthesis Settings
  4. Parallel Compilation
  5. Analysis & Synthesis Source Files Read
  6. Analysis & Synthesis Resource Usage Summary
  7. Analysis & Synthesis Resource Utilization by Entity
  8. User-Specified and Inferred Latches
  9. General Register Statistics
 10. Elapsed Time Per Partition
 11. Analysis & Synthesis Messages
 12. Analysis & Synthesis Suppressed Messages



----------------
; Legal Notice ;
----------------
Copyright (C) 1991-2013 Altera Corporation
Your use of Altera Corporation's design tools, logic functions 
and other software and tools, and its AMPP partner logic 
functions, and any output files from any of the foregoing 
(including device programming or simulation files), and any 
associated documentation or information are expressly subject 
to the terms and conditions of the Altera Program License 
Subscription Agreement, Altera MegaCore Function License 
Agreement, or other applicable license agreement, including, 
without limitation, that your use is for the sole purpose of 
programming logic devices manufactured by Altera and sold by 
Altera or its authorized distributors.  Please refer to the 
applicable agreement for further details.



+--------------------------------------------------------------------------------------+
; Analysis & Synthesis Summary                                                         ;
+------------------------------------+-------------------------------------------------+
; Analysis & Synthesis Status        ; Successful - Wed Oct 28 01:24:18 2020           ;
; Quartus II 64-Bit Version          ; 13.0.1 Build 232 06/12/2013 SP 1 SJ Web Edition ;
; Revision Name                      ; laba_one                                        ;
; Top-level Entity Name              ; laba_one                                        ;
; Family                             ; Cyclone IV E                                    ;
; Total logic elements               ; 2                                               ;
;     Total combinational functions  ; 2                                               ;
;     Dedicated logic registers      ; 0                                               ;
; Total registers                    ; 0                                               ;
; Total pins                         ; 5                                               ;
; Total virtual pins                 ; 0                                               ;
; Total memory bits                  ; 0                                               ;
; Embedded Multiplier 9-bit elements ; 0                                               ;
; Total PLLs                         ; 0                                               ;
+------------------------------------+-------------------------------------------------+


+----------------------------------------------------------------------------------------------------------------------+
; Analysis & Synthesis Settings                                                                                        ;
+----------------------------------------------------------------------------+--------------------+--------------------+
; Option                                                                     ; Setting            ; Default Value      ;
+----------------------------------------------------------------------------+--------------------+--------------------+
; Device                                                                     ; EP4CE6E22C8        ;                    ;
; Top-level entity name                                                      ; laba_one           ; laba_one           ;
; Family name                                                                ; Cyclone IV E       ; Cyclone IV GX      ;
; Use smart compilation                                                      ; Off                ; Off                ;
; Enable parallel Assembler and TimeQuest Timing Analyzer during compilation ; On                 ; On                 ;
; Enable compact report table                                                ; Off                ; Off                ;
; Restructure Multiplexers                                                   ; Auto               ; Auto               ;
; Create Debugging Nodes for IP Cores                                        ; Off                ; Off                ;
; Preserve fewer node names                                                  ; On                 ; On                 ;
; Disable OpenCore Plus hardware evaluation                                  ; Off                ; Off                ;
; Verilog Version                                                            ; Verilog_2001       ; Verilog_2001       ;
; VHDL Version                                                               ; VHDL_1993          ; VHDL_1993          ;
; State Machine Processing                                                   ; Auto               ; Auto               ;
; Safe State Machine                                                         ; Off                ; Off                ;
; Extract Verilog State Machines                                             ; On                 ; On                 ;
; Extract VHDL State Machines                                                ; On                 ; On                 ;
; Ignore Verilog initial constructs                                          ; Off                ; Off                ;
; Iteration limit for constant Verilog loops                                 ; 5000               ; 5000               ;
; Iteration limit for non-constant Verilog loops                             ; 250                ; 250                ;
; Add Pass-Through Logic to Inferred RAMs                                    ; On                 ; On                 ;
; Infer RAMs from Raw Logic                                                  ; On                 ; On                 ;
; Parallel Synthesis                                                         ; On                 ; On                 ;
; DSP Block Balancing                                                        ; Auto               ; Auto               ;
; NOT Gate Push-Back                                                         ; On                 ; On                 ;
; Power-Up Don't Care                                                        ; On                 ; On                 ;
; Remove Redundant Logic Cells                                               ; Off                ; Off                ;
; Remove Duplicate Registers                                                 ; On                 ; On                 ;
; Ignore CARRY Buffers                                                       ; Off                ; Off                ;
; Ignore CASCADE Buffers                                                     ; Off                ; Off                ;
; Ignore GLOBAL Buffers                                                      ; Off                ; Off                ;
; Ignore ROW GLOBAL Buffers                                                  ; Off                ; Off                ;
; Ignore LCELL Buffers                                                       ; Off                ; Off                ;
; Ignore SOFT Buffers                                                        ; On                 ; On                 ;
; Limit AHDL Integers to 32 Bits                                             ; Off                ; Off                ;
; Optimization Technique                                                     ; Balanced           ; Balanced           ;
; Carry Chain Length                                                         ; 70                 ; 70                 ;
; Auto Carry Chains                                                          ; On                 ; On                 ;
; Auto Open-Drain Pins                                                       ; On                 ; On                 ;
; Perform WYSIWYG Primitive Resynthesis                                      ; Off                ; Off                ;
; Auto ROM Replacement                                                       ; On                 ; On                 ;
; Auto RAM Replacement                                                       ; On                 ; On                 ;
; Auto DSP Block Replacement                                                 ; On                 ; On                 ;
; Auto Shift Register Replacement                                            ; Auto               ; Auto               ;
; Allow Shift Register Merging across Hierarchies                            ; Auto               ; Auto               ;
; Auto Clock Enable Replacement                                              ; On                 ; On                 ;
; Strict RAM Replacement                                                     ; Off                ; Off                ;
; Allow Synchronous Control Signals                                          ; On                 ; On                 ;
; Force Use of Synchronous Clear Signals                                     ; Off                ; Off                ;
; Auto RAM Block Balancing                                                   ; On                 ; On                 ;
; Auto RAM to Logic Cell Conversion                                          ; Off                ; Off                ;
; Auto Resource Sharing                                                      ; Off                ; Off                ;
; Allow Any RAM Size For Recognition                                         ; Off                ; Off                ;
; Allow Any ROM Size For Recognition                                         ; Off                ; Off                ;
; Allow Any Shift Register Size For Recognition                              ; Off                ; Off                ;
; Use LogicLock Constraints during Resource Balancing                        ; On                 ; On                 ;
; Ignore translate_off and synthesis_off directives                          ; Off                ; Off                ;
; Timing-Driven Synthesis                                                    ; On                 ; On                 ;
; Report Parameter Settings                                                  ; On                 ; On                 ;
; Report Source Assignments                                                  ; On                 ; On                 ;
; Report Connectivity Checks                                                 ; On                 ; On                 ;
; Ignore Maximum Fan-Out Assignments                                         ; Off                ; Off                ;
; Synchronization Register Chain Length                                      ; 2                  ; 2                  ;
; PowerPlay Power Optimization                                               ; Normal compilation ; Normal compilation ;
; HDL message level                                                          ; Level2             ; Level2             ;
; Suppress Register Optimization Related Messages                            ; Off                ; Off                ;
; Number of Removed Registers Reported in Synthesis Report                   ; 5000               ; 5000               ;
; Number of Swept Nodes Reported in Synthesis Report                         ; 5000               ; 5000               ;
; Number of Inverted Registers Reported in Synthesis Report                  ; 100                ; 100                ;
; Clock MUX Protection                                                       ; On                 ; On                 ;
; Auto Gated Clock Conversion                                                ; Off                ; Off                ;
; Block Design Naming                                                        ; Auto               ; Auto               ;
; SDC constraint protection                                                  ; Off                ; Off                ;
; Synthesis Effort                                                           ; Auto               ; Auto               ;
; Shift Register Replacement - Allow Asynchronous Clear Signal               ; On                 ; On                 ;
; Pre-Mapping Resynthesis Optimization                                       ; Off                ; Off                ;
; Analysis & Synthesis Message Level                                         ; Medium             ; Medium             ;
; Disable Register Merging Across Hierarchies                                ; Auto               ; Auto               ;
; Resource Aware Inference For Block RAM                                     ; On                 ; On                 ;
; Synthesis Seed                                                             ; 1                  ; 1                  ;
+----------------------------------------------------------------------------+--------------------+--------------------+


Parallel compilation was disabled, but you have multiple processors available. Enable parallel compilation to reduce compilation time.
+-------------------------------------+
; Parallel Compilation                ;
+----------------------------+--------+
; Processors                 ; Number ;
+----------------------------+--------+
; Number detected on machine ; 4      ;
; Maximum allowed            ; 1      ;
+----------------------------+--------+


+---------------------------------------------------------------------------------------------------------------------------------------------------------------------+
; Analysis & Synthesis Source Files Read                                                                                                                              ;
+----------------------------------+-----------------+------------------------------------+-----------------------------------------------------------------+---------+
; File Name with User-Entered Path ; Used in Netlist ; File Type                          ; File Name with Absolute Path                                    ; Library ;
+----------------------------------+-----------------+------------------------------------+-----------------------------------------------------------------+---------+
; MUX.v                            ; yes             ; User Verilog HDL File              ; D:/folder/fucking_learning/labs/4course/SoC/labs/1/MUX.v        ;         ;
; laba_one.bdf                     ; yes             ; User Block Diagram/Schematic File  ; D:/folder/fucking_learning/labs/4course/SoC/labs/1/laba_one.bdf ;         ;
+----------------------------------+-----------------+------------------------------------+-----------------------------------------------------------------+---------+


+------------------------------------------------------------+
; Analysis & Synthesis Resource Usage Summary                ;
+---------------------------------------------+--------------+
; Resource                                    ; Usage        ;
+---------------------------------------------+--------------+
; Estimated Total logic elements              ; 2            ;
;                                             ;              ;
; Total combinational functions               ; 2            ;
; Logic element usage by number of LUT inputs ;              ;
;     -- 4 input functions                    ; 0            ;
;     -- 3 input functions                    ; 2            ;
;     -- <=2 input functions                  ; 0            ;
;                                             ;              ;
; Logic elements by mode                      ;              ;
;     -- normal mode                          ; 2            ;
;     -- arithmetic mode                      ; 0            ;
;                                             ;              ;
; Total registers                             ; 0            ;
;     -- Dedicated logic registers            ; 0            ;
;     -- I/O registers                        ; 0            ;
;                                             ;              ;
; I/O pins                                    ; 5            ;
; Embedded Multiplier 9-bit elements          ; 0            ;
; Maximum fan-out node                        ; _MUX:inst2|q ;
; Maximum fan-out                             ; 2            ;
; Total fan-out                               ; 12           ;
; Average fan-out                             ; 1.00         ;
+---------------------------------------------+--------------+


+------------------------------------------------------------------------------------------------------------------------------------------------------------------------------+
; Analysis & Synthesis Resource Utilization by Entity                                                                                                                          ;
+----------------------------+-------------------+--------------+-------------+--------------+---------+-----------+------+--------------+----------------------+--------------+
; Compilation Hierarchy Node ; LC Combinationals ; LC Registers ; Memory Bits ; DSP Elements ; DSP 9x9 ; DSP 18x18 ; Pins ; Virtual Pins ; Full Hierarchy Name  ; Library Name ;
+----------------------------+-------------------+--------------+-------------+--------------+---------+-----------+------+--------------+----------------------+--------------+
; |laba_one                  ; 2 (0)             ; 0 (0)        ; 0           ; 0            ; 0       ; 0         ; 5    ; 0            ; |laba_one            ; work         ;
;    |_MUX:inst2|            ; 2 (2)             ; 0 (0)        ; 0           ; 0            ; 0       ; 0         ; 0    ; 0            ; |laba_one|_MUX:inst2 ; work         ;
+----------------------------+-------------------+--------------+-------------+--------------+---------+-----------+------+--------------+----------------------+--------------+
Note: For table entries with two numbers listed, the numbers in parentheses indicate the number of resources of the given type used by the specific entity alone. The numbers listed outside of parentheses indicate the total resources of the given type used by the specific entity and all of its sub-entities in the hierarchy.


+---------------------------------------------------------------------------------------------------+
; User-Specified and Inferred Latches                                                               ;
+----------------------------------------------------+---------------------+------------------------+
; Latch Name                                         ; Latch Enable Signal ; Free of Timing Hazards ;
+----------------------------------------------------+---------------------+------------------------+
; _MUX:inst2|q                                       ; sel[1]              ; yes                    ;
; Number of user-specified and inferred latches = 1  ;                     ;                        ;
+----------------------------------------------------+---------------------+------------------------+
Note: All latches listed above may not be present at the end of synthesis due to various synthesis optimizations.


+------------------------------------------------------+
; General Register Statistics                          ;
+----------------------------------------------+-------+
; Statistic                                    ; Value ;
+----------------------------------------------+-------+
; Total registers                              ; 0     ;
; Number of registers using Synchronous Clear  ; 0     ;
; Number of registers using Synchronous Load   ; 0     ;
; Number of registers using Asynchronous Clear ; 0     ;
; Number of registers using Asynchronous Load  ; 0     ;
; Number of registers using Clock Enable       ; 0     ;
; Number of registers using Preset             ; 0     ;
+----------------------------------------------+-------+


+-------------------------------+
; Elapsed Time Per Partition    ;
+----------------+--------------+
; Partition Name ; Elapsed Time ;
+----------------+--------------+
; Top            ; 00:00:01     ;
+----------------+--------------+


+-------------------------------+
; Analysis & Synthesis Messages ;
+-------------------------------+
Info: *******************************************************************
Info: Running Quartus II 64-Bit Analysis & Synthesis
    Info: Version 13.0.1 Build 232 06/12/2013 Service Pack 1 SJ Web Edition
    Info: Processing started: Wed Oct 28 01:23:41 2020
Info: Command: quartus_map --read_settings_files=on --write_settings_files=off laba_one -c laba_one
Warning (20028): Parallel compilation is not licensed and has been disabled
Info (12248): Elaborating Qsys system entity "laba_one_qsys.qsys"
Info (12250): 2020.10.28.01:23:49 Progress: Loading 1/laba_one_qsys.qsys
Info (12250): 2020.10.28.01:23:50 Progress: Reading input file
Info (12250): 2020.10.28.01:23:50 Progress: Adding clk [clock_source 13.0]
Info (12250): 2020.10.28.01:23:50 Progress: Parameterizing module clk
Info (12250): 2020.10.28.01:23:50 Progress: Adding onchip_mem [altera_avalon_onchip_memory2 13.0.1.99.2]
Info (12250): 2020.10.28.01:23:51 Progress: Parameterizing module onchip_mem
Info (12250): 2020.10.28.01:23:51 Progress: Adding nios2_qsys [altera_nios2_qsys 13.0]
Info (12250): 2020.10.28.01:23:52 Progress: Parameterizing module nios2_qsys
Info (12250): 2020.10.28.01:23:52 Progress: Adding pio [altera_avalon_pio 13.0.1.99.2]
Info (12250): 2020.10.28.01:23:52 Progress: Parameterizing module pio
Info (12250): 2020.10.28.01:23:52 Progress: Building connections
Info (12250): 2020.10.28.01:23:52 Progress: Parameterizing connections
Info (12250): 2020.10.28.01:23:52 Progress: Validating
Info (12250): 2020.10.28.01:23:53 Progress: Done reading input file
Warning (12251): Laba_one_qsys.nios2_qsys: No Debugger.  You will not be able to download or debug programs
Info (12250): Laba_one_qsys: Generating laba_one_qsys "laba_one_qsys" for QUARTUS_SYNTH
Info (12250): Pipeline_bridge_swap_transform: After transform: 4 modules, 10 connections
Info (12250): No custom instruction connections, skipping transform 
Info (12250): Merlin_translator_transform: After transform: 8 modules, 22 connections
Info (12250): Merlin_domain_transform: After transform: 15 modules, 56 connections
Info (12250): Merlin_router_transform: After transform: 19 modules, 68 connections
Info (12250): Reset_adaptation_transform: After transform: 20 modules, 70 connections
Info (12250): Merlin_network_to_switch_transform: After transform: 27 modules, 86 connections
Info (12250): Merlin_mm_transform: After transform: 27 modules, 86 connections
Info (12250): Merlin_interrupt_mapper_transform: After transform: 28 modules, 89 connections
Warning (12251): Laba_one_qsys: "No matching role found for rst_controller:reset_out:reset_req (reset_req)"
Warning (12251): Laba_one_qsys: "No matching role found for rst_controller:reset_out:reset_req (reset_req)"
Warning (12251): Laba_one_qsys: "No matching role found for rst_controller:reset_out:reset_req (reset_req)"
Warning (12251): Laba_one_qsys: "No matching role found for rst_controller:reset_out:reset_req (reset_req)"
Warning (12251): Laba_one_qsys: "No matching role found for rst_controller:reset_out:reset_req (reset_req)"
Warning (12251): Laba_one_qsys: "No matching role found for rst_controller:reset_out:reset_req (reset_req)"
Warning (12251): Laba_one_qsys: "No matching role found for rst_controller:reset_out:reset_req (reset_req)"
Warning (12251): Laba_one_qsys: "No matching role found for rst_controller:reset_out:reset_req (reset_req)"
Warning (12251): Laba_one_qsys: "No matching role found for rst_controller:reset_out:reset_req (reset_req)"
Warning (12251): Laba_one_qsys: "No matching role found for rst_controller:reset_out:reset_req (reset_req)"
Warning (12251): Laba_one_qsys: "No matching role found for rst_controller:reset_out:reset_req (reset_req)"
Warning (12251): Laba_one_qsys: "No matching role found for rst_controller:reset_out:reset_req (reset_req)"
Warning (12251): Laba_one_qsys: "No matching role found for rst_controller:reset_out:reset_req (reset_req)"
Warning (12251): Laba_one_qsys: "No matching role found for rst_controller:reset_out:reset_req (reset_req)"
Warning (12251): Laba_one_qsys: "No matching role found for rst_controller:reset_out:reset_req (reset_req)"
Warning (12251): Laba_one_qsys: "No matching role found for rst_controller:reset_out:reset_req (reset_req)"
Warning (12251): Laba_one_qsys: "No matching role found for rst_controller:reset_out:reset_req (reset_req)"
Warning (12251): Laba_one_qsys: "No matching role found for rst_controller:reset_out:reset_req (reset_req)"
Warning (12251): Laba_one_qsys: "No matching role found for rst_controller:reset_out:reset_req (reset_req)"
Warning (12251): Laba_one_qsys: "No matching role found for rst_controller:reset_out:reset_req (reset_req)"
Warning (12251): Laba_one_qsys: "No matching role found for rst_controller:reset_out:reset_req (reset_req)"
Warning (12251): Laba_one_qsys: "No matching role found for rst_controller:reset_out:reset_req (reset_req)"
Warning (12251): Laba_one_qsys: "No matching role found for rst_controller:reset_out:reset_req (reset_req)"
Warning (12251): Laba_one_qsys: "No matching role found for rst_controller:reset_out:reset_req (reset_req)"
Warning (12251): Laba_one_qsys: "No matching role found for rst_controller:reset_out:reset_req (reset_req)"
Info (12250): Onchip_mem: Starting RTL generation for module 'laba_one_qsys_onchip_mem'
Info (12250): Onchip_mem:   Generation command is [exec D:/programs/altera/quartus/bin/perl/bin/perl.exe -I D:/programs/altera/quartus/common/ip/altera/common/perl/5.8.3 -I D:/programs/altera/quartus/sopc_builder/bin/europa -I D:/programs/altera/quartus/sopc_builder/bin/perl_lib -I D:/programs/altera/quartus/sopc_builder/bin -I D:/programs/altera/quartus/../ip/altera/sopc_builder_ip/common -I D:/programs/altera/quartus/../ip/altera/sopc_builder_ip/altera_avalon_onchip_memory2 -- D:/programs/altera/quartus/../ip/altera/sopc_builder_ip/altera_avalon_onchip_memory2/generate_rtl.pl --name=laba_one_qsys_onchip_mem --dir=C:/Users/nikst/AppData/Local/Temp/alt8562_4714103178005059902.dir/0001_onchip_mem_gen/ --quartus_dir=D:/programs/altera/quartus --verilog --config=C:/Users/nikst/AppData/Local/Temp/alt8562_4714103178005059902.dir/0001_onchip_mem_gen//laba_one_qsys_onchip_mem_component_configuration.pl  --do_build_sim=0  ]
Info (12250): Onchip_mem: Done RTL generation for module 'laba_one_qsys_onchip_mem'
Info (12250): Onchip_mem: "laba_one_qsys" instantiated altera_avalon_onchip_memory2 "onchip_mem"
Info (12250): Nios2_qsys: Starting RTL generation for module 'laba_one_qsys_nios2_qsys'
Info (12250): Nios2_qsys:   Generation command is [exec D:/programs/altera/quartus/../ip/altera/nios2_ip/altera_nios2/eperl.exe -I D:/programs/altera/quartus/common/ip/altera/common/perl/5.8.3 -I D:/programs/altera/quartus/sopc_builder/bin/europa -I D:/programs/altera/quartus/sopc_builder/bin/perl_lib -I D:/programs/altera/quartus/sopc_builder/bin -I D:/programs/altera/quartus/../ip/altera/nios2_ip/altera_nios2/cpu_lib -I D:/programs/altera/quartus/../ip/altera/nios2_ip/altera_nios2/nios_lib -I D:/programs/altera/quartus/../ip/altera/nios2_ip/altera_nios2 -I D:/programs/altera/quartus/../ip/altera/nios2_ip/altera_nios2 -- D:/programs/altera/quartus/../ip/altera/nios2_ip/altera_nios2/generate_rtl.epl --name=laba_one_qsys_nios2_qsys --dir=C:/Users/nikst/AppData/Local/Temp/alt8562_4714103178005059902.dir/0002_nios2_qsys_gen/ --quartus_dir=D:/programs/altera/quartus --verilog --config=C:/Users/nikst/AppData/Local/Temp/alt8562_4714103178005059902.dir/0002_nios2_qsys_gen//laba_one_qsys_nios2_qsys_processor_configuration.pl  --do_build_sim=0    --bogus  ]
Info (12250): Nios2_qsys: # 2020.10.28 01:24:07 (*) Starting Nios II generation
Info (12250): Nios2_qsys: # 2020.10.28 01:24:07 (*)   Checking for plaintext license.
Info (12250): Nios2_qsys: # 2020.10.28 01:24:11 (*)   Couldn't query license setup in Quartus directory D:/programs/altera/quartus
Info (12250): Nios2_qsys: # 2020.10.28 01:24:11 (*)   Defaulting to contents of LM_LICENSE_FILE environment variable
Info (12250): Nios2_qsys: # 2020.10.28 01:24:11 (*)   LM_LICENSE_FILE environment variable is empty
Info (12250): Nios2_qsys: # 2020.10.28 01:24:11 (*)   Plaintext license not found.
Info (12250): Nios2_qsys: # 2020.10.28 01:24:11 (*)   No license required to generate encrypted Nios II/e.
Info (12250): Nios2_qsys: # 2020.10.28 01:24:11 (*)   Elaborating CPU configuration settings
Info (12250): Nios2_qsys: # 2020.10.28 01:24:11 (*)   Creating all objects for CPU
Info (12250): Nios2_qsys: # 2020.10.28 01:24:12 (*)   Generating RTL from CPU objects
Info (12250): Nios2_qsys: # 2020.10.28 01:24:12 (*)   Creating plain-text RTL
Info (12250): Nios2_qsys: # 2020.10.28 01:24:12 (*) Done Nios II generation
Info (12250): Nios2_qsys: Done RTL generation for module 'laba_one_qsys_nios2_qsys'
Info (12250): Nios2_qsys: "laba_one_qsys" instantiated altera_nios2_qsys "nios2_qsys"
Info (12250): Pio: Starting RTL generation for module 'laba_one_qsys_pio'
Info (12250): Pio:   Generation command is [exec D:/programs/altera/quartus/bin/perl/bin/perl.exe -I D:/programs/altera/quartus/common/ip/altera/common/perl/5.8.3 -I D:/programs/altera/quartus/sopc_builder/bin/europa -I D:/programs/altera/quartus/sopc_builder/bin/perl_lib -I D:/programs/altera/quartus/sopc_builder/bin -I D:/programs/altera/quartus/../ip/altera/sopc_builder_ip/common -I D:/programs/altera/quartus/../ip/altera/sopc_builder_ip/altera_avalon_pio -- D:/programs/altera/quartus/../ip/altera/sopc_builder_ip/altera_avalon_pio/generate_rtl.pl --name=laba_one_qsys_pio --dir=C:/Users/nikst/AppData/Local/Temp/alt8562_4714103178005059902.dir/0003_pio_gen/ --quartus_dir=D:/programs/altera/quartus --verilog --config=C:/Users/nikst/AppData/Local/Temp/alt8562_4714103178005059902.dir/0003_pio_gen//laba_one_qsys_pio_component_configuration.pl  --do_build_sim=0  ]
Info (12250): Pio: Done RTL generation for module 'laba_one_qsys_pio'
Info (12250): Pio: "laba_one_qsys" instantiated altera_avalon_pio "pio"
Info (12250): Nios2_qsys_instruction_master_translator: "laba_one_qsys" instantiated altera_merlin_master_translator "nios2_qsys_instruction_master_translator"
Info (12250): Onchip_mem_s1_translator: "laba_one_qsys" instantiated altera_merlin_slave_translator "onchip_mem_s1_translator"
Info (12250): Nios2_qsys_instruction_master_translator_avalon_universal_master_0_agent: "laba_one_qsys" instantiated altera_merlin_master_agent "nios2_qsys_instruction_master_translator_avalon_universal_master_0_agent"
Info (12250): Onchip_mem_s1_translator_avalon_universal_slave_0_agent: "laba_one_qsys" instantiated altera_merlin_slave_agent "onchip_mem_s1_translator_avalon_universal_slave_0_agent"
Info (12250): Onchip_mem_s1_translator_avalon_universal_slave_0_agent_rsp_fifo: "laba_one_qsys" instantiated altera_avalon_sc_fifo "onchip_mem_s1_translator_avalon_universal_slave_0_agent_rsp_fifo"
Info (12250): Addr_router: "laba_one_qsys" instantiated altera_merlin_router "addr_router"
Info (12250): Id_router: "laba_one_qsys" instantiated altera_merlin_router "id_router"
Info (12250): Rst_controller: "laba_one_qsys" instantiated altera_reset_controller "rst_controller"
Info (12250): Cmd_xbar_demux: "laba_one_qsys" instantiated altera_merlin_demultiplexer "cmd_xbar_demux"
Info (12250): Cmd_xbar_mux: "laba_one_qsys" instantiated altera_merlin_multiplexer "cmd_xbar_mux"
Info (12250): Rsp_xbar_mux: "laba_one_qsys" instantiated altera_merlin_multiplexer "rsp_xbar_mux"
Info (12250): Reusing file D:/folder/fucking_learning/labs/4course/SoC/labs/1/db/ip/laba_one_qsys/submodules/altera_merlin_arbitrator.sv
Info (12250): Irq_mapper: "laba_one_qsys" instantiated altera_irq_mapper "irq_mapper"
Info (12250): Laba_one_qsys: Done laba_one_qsys" with 16 modules, 38 files, 623701 bytes
Info (12249): Finished elaborating Qsys system entity "laba_one_qsys.qsys"
Info (12021): Found 1 design units, including 1 entities, in source file mux.v
    Info (12023): Found entity 1: _MUX
Info (12021): Found 1 design units, including 1 entities, in source file laba_one.bdf
    Info (12023): Found entity 1: laba_one
Info (12021): Found 1 design units, including 1 entities, in source file db/ip/laba_one_qsys/laba_one_qsys.v
    Info (12023): Found entity 1: laba_one_qsys
Info (12021): Found 1 design units, including 1 entities, in source file db/ip/laba_one_qsys/submodules/altera_avalon_sc_fifo.v
    Info (12023): Found entity 1: altera_avalon_sc_fifo
Info (12021): Found 2 design units, including 2 entities, in source file db/ip/laba_one_qsys/submodules/altera_merlin_arbitrator.sv
    Info (12023): Found entity 1: altera_merlin_arbitrator
    Info (12023): Found entity 2: altera_merlin_arb_adder
Info (12021): Found 1 design units, including 1 entities, in source file db/ip/laba_one_qsys/submodules/altera_merlin_burst_uncompressor.sv
    Info (12023): Found entity 1: altera_merlin_burst_uncompressor
Info (12021): Found 1 design units, including 1 entities, in source file db/ip/laba_one_qsys/submodules/altera_merlin_master_agent.sv
    Info (12023): Found entity 1: altera_merlin_master_agent
Info (12021): Found 1 design units, including 1 entities, in source file db/ip/laba_one_qsys/submodules/altera_merlin_master_translator.sv
    Info (12023): Found entity 1: altera_merlin_master_translator
Info (12021): Found 1 design units, including 1 entities, in source file db/ip/laba_one_qsys/submodules/altera_merlin_slave_agent.sv
    Info (12023): Found entity 1: altera_merlin_slave_agent
Info (12021): Found 1 design units, including 1 entities, in source file db/ip/laba_one_qsys/submodules/altera_merlin_slave_translator.sv
    Info (12023): Found entity 1: altera_merlin_slave_translator
Info (12021): Found 1 design units, including 1 entities, in source file db/ip/laba_one_qsys/submodules/altera_reset_controller.v
    Info (12023): Found entity 1: altera_reset_controller
Info (12021): Found 1 design units, including 1 entities, in source file db/ip/laba_one_qsys/submodules/altera_reset_synchronizer.v
    Info (12023): Found entity 1: altera_reset_synchronizer
Info (12021): Found 2 design units, including 2 entities, in source file db/ip/laba_one_qsys/submodules/laba_one_qsys_addr_router.sv
    Info (12023): Found entity 1: laba_one_qsys_addr_router_default_decode
    Info (12023): Found entity 2: laba_one_qsys_addr_router
Info (12021): Found 1 design units, including 1 entities, in source file db/ip/laba_one_qsys/submodules/laba_one_qsys_cmd_xbar_demux.sv
    Info (12023): Found entity 1: laba_one_qsys_cmd_xbar_demux
Info (12021): Found 1 design units, including 1 entities, in source file db/ip/laba_one_qsys/submodules/laba_one_qsys_cmd_xbar_mux.sv
    Info (12023): Found entity 1: laba_one_qsys_cmd_xbar_mux
Info (12021): Found 2 design units, including 2 entities, in source file db/ip/laba_one_qsys/submodules/laba_one_qsys_id_router.sv
    Info (12023): Found entity 1: laba_one_qsys_id_router_default_decode
    Info (12023): Found entity 2: laba_one_qsys_id_router
Info (12021): Found 1 design units, including 1 entities, in source file db/ip/laba_one_qsys/submodules/laba_one_qsys_irq_mapper.sv
    Info (12023): Found entity 1: laba_one_qsys_irq_mapper
Info (12021): Found 3 design units, including 3 entities, in source file db/ip/laba_one_qsys/submodules/laba_one_qsys_nios2_qsys.v
    Info (12023): Found entity 1: laba_one_qsys_nios2_qsys_register_bank_a_module
    Info (12023): Found entity 2: laba_one_qsys_nios2_qsys_register_bank_b_module
    Info (12023): Found entity 3: laba_one_qsys_nios2_qsys
Info (12021): Found 1 design units, including 1 entities, in source file db/ip/laba_one_qsys/submodules/laba_one_qsys_nios2_qsys_test_bench.v
    Info (12023): Found entity 1: laba_one_qsys_nios2_qsys_test_bench
Info (12021): Found 1 design units, including 1 entities, in source file db/ip/laba_one_qsys/submodules/laba_one_qsys_onchip_mem.v
    Info (12023): Found entity 1: laba_one_qsys_onchip_mem
Info (12021): Found 1 design units, including 1 entities, in source file db/ip/laba_one_qsys/submodules/laba_one_qsys_pio.v
    Info (12023): Found entity 1: laba_one_qsys_pio
Info (12021): Found 1 design units, including 1 entities, in source file db/ip/laba_one_qsys/submodules/laba_one_qsys_rsp_xbar_mux.sv
    Info (12023): Found entity 1: laba_one_qsys_rsp_xbar_mux
Info (12127): Elaborating entity "laba_one" for the top level hierarchy
Info (12128): Elaborating entity "_MUX" for hierarchy "_MUX:inst2"
Warning (10270): Verilog HDL Case Statement warning at MUX.v(8): incomplete case statement has no default case item
Warning (10240): Verilog HDL Always Construct warning at MUX.v(8): inferring latch(es) for variable "q", which holds its previous value in one or more paths through the always construct
Info (10041): Inferred latch for "q" at MUX.v(8)
Info (286030): Timing-Driven Synthesis is running
Info (144001): Generated suppressed messages file D:/folder/fucking_learning/labs/4course/SoC/labs/1/output_files/laba_one.map.smsg
Info (16010): Generating hard_block partition "hard_block:auto_generated_inst"
    Info (16011): Adding 0 node(s), including 0 DDIO, 0 PLL, 0 transceiver and 0 LCELL
Info (21057): Implemented 7 device resources after synthesis - the final resource count might be different
    Info (21058): Implemented 4 input pins
    Info (21059): Implemented 1 output pins
    Info (21061): Implemented 2 logic cells
Info: Quartus II 64-Bit Analysis & Synthesis was successful. 0 errors, 29 warnings
    Info: Peak virtual memory: 4575 megabytes
    Info: Processing ended: Wed Oct 28 01:24:18 2020
    Info: Elapsed time: 00:00:37
    Info: Total CPU time (on all processors): 00:00:16


+------------------------------------------+
; Analysis & Synthesis Suppressed Messages ;
+------------------------------------------+
The suppressed messages can be found in D:/folder/fucking_learning/labs/4course/SoC/labs/1/output_files/laba_one.map.smsg.


