зарплата руководителя https://russia.trud.com/salary/692/67659.html
зарплата инженера https://russia.trud.com/salary/692/3593.html
бумага а4 https://market.yandex.ru/product--bumaga-svetocopy-a4-classic-80-g-m-500-l/476914202?sku=100683308911&glfilter=16723929%3A1~1_100683308911
принтер https://market.yandex.ru/product--mfu-canon-pixma-ts3440/856236089?sku=101206272922&cpa=0