0.250000000000000	0.125000000000000	0.062500000000000	0.031250000000000	0.015625000000000	0.007812500000000	0.003906250000000	0.001953125000000
0.000495750000482	0.000821749999886	0.001706500001092	0.003440299999056	0.007375600000159	0.014096499999141	0.038807450000604	0.084026100001211
587018.728744562481000	2.991908206531049	1.523920825142840	0.761440530665589	0.380613289110897	0.190304418400350	0.095176359634470	0.047618948075288
0.250000000000000	0.125000000000000	0.062500000000000	0.031250000000000	0.015625000000000	0.007812500000000	0.003906250000000	0.001953125000000
0.001626450000913	0.003145849999783	0.009349999998449	0.016743499998483	0.031797400000869	0.076914699999179	0.154195650000474	0.307185749999917
2.861690470968055	1.459299421659241	0.737155325291410	0.370523778591759	0.185778728188073	0.093044001952764	0.046585480440428	0.023333355111562
0.250000000000000	0.125000000000000	0.062500000000000	0.031250000000000	0.015625000000000	0.007812500000000	0.003906250000000	0.001953125000000
0.001941950002220	0.003987950001829	0.007984300000317	0.022366549999788	0.043339500000002	0.094738599998891	0.192001749999690	0.356877000000168
4.503140229879515	2.259016405171538	1.131409470350346	0.566205196590222	0.283252426237012	0.141688396848035	0.070884477282361	0.035477042210257
0.250000000000000	0.125000000000000	0.062500000000000	0.031250000000000	0.015625000000000	0.007812500000000	0.003906250000000	0.001953125000000
0.000672699999996	0.001266049997867	0.002577000001111	0.006833599998572	0.015747049999845	0.024440249999316	0.056760550000035	0.120935350001673
5.287742126592007	2.662762811451000	1.329380460702605	0.664240875918470	0.332036029194655	0.166022035728548	0.083036804995969	0.041549589235230
0.250000000000000	0.125000000000000	0.062500000000000	0.031250000000000	0.015625000000000	0.007812500000000	0.003906250000000	0.001953125000000
0.000441499998487	0.000862600001710	0.001885199999379	0.003663199999210	0.009920599999532	0.017917999999554	0.038128699998197	0.070059949999631
18475595924.040260300000000	3.695523557299852	1.863372761171452	0.935639109026077	0.468835229971188	0.234696587516667	0.117442809221605	0.058769772194242
0.250000000000000	0.125000000000000	0.062500000000000	0.031250000000000	0.015625000000000	0.007812500000000	0.003906250000000	0.001953125000000
0.000464250002551	0.000872700000400	0.001846400000431	0.004680549998739	0.010355900001741	0.014791699999478	0.036302649999925	0.084154649999618
5.942107144879339	2.618321165344391	1.221172893337458	0.588637688302831	0.288859470996418	0.143090021491024	0.071234866253165	0.035564637320970
0.250000000000000	0.125000000000000	0.062500000000000	0.031250000000000	0.015625000000000	0.007812500000000	0.003906250000000	0.001953125000000
0.000653299999612	0.001291450000281	0.003020499998456	0.005367999998271	0.022193449998667	0.028947750000953	0.058705500001452	0.130961700000626
4.528868352440878	2.262144768327309	1.132050476442469	0.566353291396914	0.283288158508576	0.141697180671482	0.070886655273017	0.035477584528107
0.250000000000000	0.125000000000000	0.062500000000000	0.031250000000000	0.015625000000000	0.007812500000000	0.003906250000000	0.001953125000000
0.000296599999274	0.000663700000587	0.001354599999104	0.001863550000053	0.003723949999767	0.007709949999480	0.020437750001292	0.032175899998037
7.354230483263573	3.738216409253442	1.884558280278293	0.946178259242636	0.474089696985770	0.237319828894196	0.118753404877116	0.059424810381619
