$comment
	File created using the following command:
		vcd file laba_3.msim.vcd -direction
$end
$date
	Fri Nov 13 22:17:20 2020
$end
$version
	ModelSim Version 10.1d
$end
$timescale
	1ps
$end
$scope module laba_3_vlg_vec_tst $end
$var reg 1 ! clk $end
$var reg 1 " reset $end
$var reg 1 # up_down $end
$var wire 1 $ bin_dec_out [3] $end
$var wire 1 % bin_dec_out [2] $end
$var wire 1 & bin_dec_out [1] $end
$var wire 1 ' bin_dec_out [0] $end
$var wire 1 ( bin_out [2] $end
$var wire 1 ) bin_out [1] $end
$var wire 1 * bin_out [0] $end
$var wire 1 + cout $end
$var wire 1 , up_down_out [7] $end
$var wire 1 - up_down_out [6] $end
$var wire 1 . up_down_out [5] $end
$var wire 1 / up_down_out [4] $end
$var wire 1 0 up_down_out [3] $end
$var wire 1 1 up_down_out [2] $end
$var wire 1 2 up_down_out [1] $end
$var wire 1 3 up_down_out [0] $end
$var wire 1 4 sampler $end
$scope module i1 $end
$var wire 1 5 gnd $end
$var wire 1 6 vcc $end
$var wire 1 7 unknown $end
$var tri1 1 8 devclrn $end
$var tri1 1 9 devpor $end
$var tri1 1 : devoe $end
$var wire 1 ; cout~output_o $end
$var wire 1 < bin_dec_out[3]~output_o $end
$var wire 1 = bin_dec_out[2]~output_o $end
$var wire 1 > bin_dec_out[1]~output_o $end
$var wire 1 ? bin_dec_out[0]~output_o $end
$var wire 1 @ bin_out[2]~output_o $end
$var wire 1 A bin_out[1]~output_o $end
$var wire 1 B bin_out[0]~output_o $end
$var wire 1 C up_down_out[7]~output_o $end
$var wire 1 D up_down_out[6]~output_o $end
$var wire 1 E up_down_out[5]~output_o $end
$var wire 1 F up_down_out[4]~output_o $end
$var wire 1 G up_down_out[3]~output_o $end
$var wire 1 H up_down_out[2]~output_o $end
$var wire 1 I up_down_out[1]~output_o $end
$var wire 1 J up_down_out[0]~output_o $end
$var wire 1 K inst5|out[0]~3_combout $end
$var wire 1 L reset~input_o $end
$var wire 1 M reset~inputclkctrl_outclk $end
$var wire 1 N inst5|out~0_combout $end
$var wire 1 O inst5|out~2_combout $end
$var wire 1 P inst5|out[2]~1_combout $end
$var wire 1 Q inst5|Equal0~0_combout $end
$var wire 1 R clk~input_o $end
$var wire 1 S clk~inputclkctrl_outclk $end
$var wire 1 T inst1|out[1]~1_combout $end
$var wire 1 U inst1|out[2]~0_combout $end
$var wire 1 V up_down~input_o $end
$var wire 1 W inst|out[0]~9 $end
$var wire 1 X inst|out[1]~10_combout $end
$var wire 1 Y inst|out[1]~11 $end
$var wire 1 Z inst|out[2]~12_combout $end
$var wire 1 [ inst|out[2]~13 $end
$var wire 1 \ inst|out[3]~14_combout $end
$var wire 1 ] inst|out[3]~15 $end
$var wire 1 ^ inst|out[4]~16_combout $end
$var wire 1 _ inst|out[4]~17 $end
$var wire 1 ` inst|out[5]~19 $end
$var wire 1 a inst|out[6]~20_combout $end
$var wire 1 b inst|out[6]~21 $end
$var wire 1 c inst|out[7]~22_combout $end
$var wire 1 d inst|out[5]~18_combout $end
$var wire 1 e inst|out[0]~8_combout $end
$var wire 1 f inst5|out [3] $end
$var wire 1 g inst5|out [2] $end
$var wire 1 h inst5|out [1] $end
$var wire 1 i inst5|out [0] $end
$var wire 1 j inst1|out [2] $end
$var wire 1 k inst1|out [1] $end
$var wire 1 l inst1|out [0] $end
$var wire 1 m inst|out [7] $end
$var wire 1 n inst|out [6] $end
$var wire 1 o inst|out [5] $end
$var wire 1 p inst|out [4] $end
$var wire 1 q inst|out [3] $end
$var wire 1 r inst|out [2] $end
$var wire 1 s inst|out [1] $end
$var wire 1 t inst|out [0] $end
$upscope $end
$upscope $end
$enddefinitions $end
#0
$dumpvars
0!
0"
1#
x'
x&
x%
x$
x*
x)
x(
x+
x3
x2
x1
x0
x/
x.
x-
x,
x4
05
16
x7
18
19
1:
x;
x<
x=
x>
x?
x@
xA
xB
xC
xD
xE
xF
xG
xH
xI
xJ
1K
0L
xM
xN
xO
xP
xQ
0R
xS
xT
xU
1V
xW
xX
xY
xZ
x[
x\
x]
x^
x_
x`
xa
xb
xc
xd
xe
0i
0h
0g
0f
zl
0k
0j
0t
0s
0r
0q
0p
0o
0n
0m
$end
#378
0S
0M
#425
0U
#431
0Q
#434
0P
#435
0N
#478
0T
#479
0O
#662
0W
#701
1e
#720
1Y
#778
0[
#836
1]
#894
0_
#952
1`
#1010
0b
#2994
0J
03
#3060
0@
0(
#3071
0A
0)
#3077
0C
0,
#3093
0I
02
#3121
0>
0&
#3179
0?
0'
#3239
0D
0-
#3272
0E
0.
#3353
0<
0$
#3396
0G
0=
00
0%
#3558
0;
0+
#3669
0d
#3723
0^
0a
0\
#3724
0Z
0X
#3730
0c
#3898
0H
01
#4080
0B
0*
#4333
0F
0/
#40000
1!
04
#40527
1R
#40917
1S
#42552
1i
#42560
1t
#42921
0K
#42953
1T
#42954
1O
#43198
0e
#43267
1W
#43722
1X
#45634
1J
13
#45795
1?
1'
#46631
1B
1*
#80000
0!
14
#80701
0R
#81079
0S
#120000
1!
04
#120527
1R
#120917
1S
#122552
0i
1h
1k
#122560
1s
0t
#122905
1K
#122920
1U
#122927
1P
#123146
0Y
#123201
0X
#123222
0W
#123261
1e
#123280
1Y
0U
#123285
0P
#123677
1X
#125554
0J
03
#125663
1A
1)
#125728
1>
1&
#125731
0?
0'
#125736
1I
12
#126632
0B
0*
#160000
0!
14
#160701
0R
#161079
0S
#200000
1!
04
#200527
1R
#200917
1S
#202552
1i
#202560
1t
#202921
0K
#202943
0T
#202944
0O
#203188
1U
#203192
1P
#203198
0e
#203267
1W
#203325
0Y
#203704
0X
#203780
1Z
#205634
1J
13
#205795
1?
1'
#206631
1B
1*
#240000
0!
14
#240701
0R
#241079
0S
#280000
1!
04
#280527
1R
#280917
1S
#282552
0i
0h
1g
0k
1j
#282560
0s
1r
0t
#282905
1T
1O
1K
#283030
0T
#283031
0O
#283197
0Z
#283222
0W
#283261
1e
#283274
1[
#283348
1Y
#283406
0[
#283803
1Z
#285554
0J
03
#285623
0A
0)
#285647
1@
1(
#285653
0I
02
#285673
0>
0&
#285731
0?
0'
#285973
1=
1%
#286482
1H
11
#286632
0B
0*
#320000
0!
14
#320701
0R
#321079
0S
#340000
0#
04
#340691
0V
#344589
1d
#344647
1\
#344648
1X
#344661
1a
#344662
1^
#344674
0Z
#344676
1c
#344742
1[
#344800
0]
#344858
1_
#344916
0`
#344974
1b
#345179
0\
#345237
0^
#345295
0d
#345353
0a
#345411
0c
#360000
1!
14
#360527
1R
#360917
1S
#362552
1i
#362560
1s
0r
1t
#362921
0K
#362953
1T
#362954
1O
#363146
0Y
#363198
0e
#363201
0X
#363267
1W
#363722
1X
#365634
1J
13
#365736
1I
12
#365795
1?
1'
#366458
0H
01
#366631
1B
1*
#400000
0!
04
#400701
0R
#401079
0S
#440000
1!
14
#440527
1R
#440917
1S
#442552
0i
1h
1k
#442560
0t
#442905
1K
#442910
0U
#442917
0P
#442927
1N
#443222
0W
#443261
1e
#443281
1U
#443286
1P
#443303
0N
#443659
0X
#445554
0J
03
#445663
1A
1)
#445728
1>
1&
#445731
0?
0'
#446632
0B
0*
#480000
0!
04
#480701
0R
#481079
0S
#520000
1!
14
#520527
1R
#520917
1S
#522552
1i
#522560
0s
1t
#522921
0K
#522943
0T
#522944
0O
#523187
0U
#523191
0P
#523198
0e
#523199
1N
#523267
1W
1X
#523704
0X
#525634
1J
13
#525653
0I
02
#525795
1?
1'
#526631
1B
1*
#560000
0!
04
#560701
0R
#561079
0S
#580000
1#
14
#580517
1V
#584161
1d
#584187
0b
0_
#584188
0[
#584215
1X
#584228
1^
1a
#584229
1Z
#584263
1`
#584309
1]
#584310
1Y
#584624
0d
#584700
0a
#584746
0^
#584747
0Z
#600000
1!
04
#600527
1R
#600917
1S
#602552
0i
1f
0h
0g
0k
0j
#602560
1s
0t
#602905
1T
1O
1K
#603030
0T
#603031
0O
#603146
0Y
#603201
0X
#603222
0W
#603261
1e
#603280
1Y
#603677
1X
#605554
0J
03
#605612
0@
0(
#605623
0A
0)
#605673
0>
0&
#605731
0?
0'
#605736
1I
12
#605937
1<
1$
#605948
0=
0%
#606632
0B
0*
#640000
0!
14
#640701
0R
#641079
0S
#680000
1!
04
#680527
1R
#680917
1S
#682552
1i
#682560
1t
#682921
0K
#682953
1T
#683164
1Q
#683198
0e
#683210
0N
#683267
1W
#683325
0Y
#683704
0X
#683780
1Z
#685634
1J
13
#685795
1?
1'
#686377
1;
1+
#686631
1B
1*
#720000
0!
14
#720701
0R
#721079
0S
#740000
1"
04
#740527
1L
#740917
1M
#742531
0f
0i
#742884
1K
#742962
0Q
#743009
0T
#745710
0?
0'
#745884
0<
0$
#746089
0;
0+
#746611
0B
0*
#760000
1!
14
#760527
1R
#760917
1S
#762560
0s
0t
#763222
0W
#763261
1e
#763348
1Y
#763785
0Z
#765554
0J
03
#765653
0I
02
#800000
0"
0!
04
#800701
0R
0L
#801079
0S
0M
#840000
1!
14
#840527
1R
#840917
1S
#842552
1i
#842560
1t
#842921
0K
#842953
1T
#842954
1O
#843198
0e
#843267
1W
#843722
1X
#845634
1J
13
#845795
1?
1'
#846631
1B
1*
#880000
0!
04
#880701
0R
#881079
0S
#920000
1!
14
#920527
1R
#920917
1S
#922552
0i
1h
1k
#922560
1s
0t
#922905
1K
#922920
1U
#922927
1P
#923146
0Y
#923201
0X
#923222
0W
#923261
1e
#923280
1Y
0U
#923285
0P
#923677
1X
#925554
0J
03
#925663
1A
1)
#925728
1>
1&
#925731
0?
0'
#925736
1I
12
#926632
0B
0*
#960000
0!
04
#960701
0R
#961079
0S
#1000000
