$comment
	File created using the following command:
		vcd file laba_one.msim.vcd -direction
$end
$date
	Wed Oct 28 03:28:33 2020
$end
$version
	ModelSim Version 10.1d
$end
$timescale
	1ps
$end
$scope module laba_one_vlg_vec_tst $end
$var reg 1 ! a $end
$var reg 1 " b $end
$var reg 1 # selector $end
$var reg 1 $ selector1 $end
$var reg 1 % signal $end
$var wire 1 & out [1] $end
$var wire 1 ' out [0] $end
$var wire 1 ( out_0 $end
$var wire 1 ) sampler $end
$scope module i1 $end
$var wire 1 * gnd $end
$var wire 1 + vcc $end
$var wire 1 , unknown $end
$var tri1 1 - devclrn $end
$var tri1 1 . devpor $end
$var tri1 1 / devoe $end
$var wire 1 0 out_0~output_o $end
$var wire 1 1 out[1]~output_o $end
$var wire 1 2 out[0]~output_o $end
$var wire 1 3 b~input_o $end
$var wire 1 4 a~input_o $end
$var wire 1 5 selector~input_o $end
$var wire 1 6 inst|out~0_combout $end
$var wire 1 7 signal~input_o $end
$var wire 1 8 selector1~input_o $end
$var wire 1 9 inst2|out[1]~0_combout $end
$var wire 1 : inst2|out[0]~1_combout $end
$upscope $end
$upscope $end
$enddefinitions $end
#0
$dumpvars
0!
0"
1#
x$
x%
x'
x&
0(
x)
0*
1+
x,
1-
1.
1/
00
x1
x2
03
04
15
06
x7
x8
x9
x:
$end
#240000
1"
13
0)
16
10
1(
#520000
1!
0#
0"
14
05
03
1)
#760000
0!
04
0)
06
00
0(
#1000000
