Flow report for _DECODER
Tue Sep 29 01:57:14 2020
Quartus Prime Version 20.1.0 Build 711 06/05/2020 SJ Lite Edition


---------------------
; Table of Contents ;
---------------------
  1. Legal Notice
  2. Flow Summary
  3. Flow Settings
  4. Flow Non-Default Global Settings
  5. Flow Elapsed Time
  6. Flow OS Summary
  7. Flow Log
  8. Flow Messages
  9. Flow Suppressed Messages



----------------
; Legal Notice ;
----------------
Copyright (C) 2020  Intel Corporation. All rights reserved.
Your use of Intel Corporation's design tools, logic functions 
and other software and tools, and any partner logic 
functions, and any output files from any of the foregoing 
(including device programming or simulation files), and any 
associated documentation or information are expressly subject 
to the terms and conditions of the Intel Program License 
Subscription Agreement, the Intel Quartus Prime License Agreement,
the Intel FPGA IP License Agreement, or other applicable license
agreement, including, without limitation, that your use is for
the sole purpose of programming logic devices manufactured by
Intel and sold by Intel or its authorized distributors.  Please
refer to the applicable agreement for further details, at
https://fpgasoftware.intel.com/eula.



+----------------------------------------------------------------------------------+
; Flow Summary                                                                     ;
+------------------------------------+---------------------------------------------+
; Flow Status                        ; Successful - Tue Sep 29 01:57:14 2020       ;
; Quartus Prime Version              ; 20.1.0 Build 711 06/05/2020 SJ Lite Edition ;
; Revision Name                      ; _DECODER                                    ;
; Top-level Entity Name              ; _DECODER                                    ;
; Family                             ; Cyclone IV E                                ;
; Total logic elements               ; 5 / 6,272 ( < 1 % )                         ;
;     Total combinational functions  ; 5 / 6,272 ( < 1 % )                         ;
;     Dedicated logic registers      ; 0 / 6,272 ( 0 % )                           ;
; Total registers                    ; 0                                           ;
; Total pins                         ; 8 / 92 ( 9 % )                              ;
; Total virtual pins                 ; 0                                           ;
; Total memory bits                  ; 0 / 276,480 ( 0 % )                         ;
; Embedded Multiplier 9-bit elements ; 0 / 30 ( 0 % )                              ;
; Total PLLs                         ; 0 / 2 ( 0 % )                               ;
; Device                             ; EP4CE6E22C6                                 ;
; Timing Models                      ; Final                                       ;
+------------------------------------+---------------------------------------------+


+-----------------------------------------+
; Flow Settings                           ;
+-------------------+---------------------+
; Option            ; Setting             ;
+-------------------+---------------------+
; Start date & time ; 09/29/2020 01:45:58 ;
; Main task         ; Compilation         ;
; Revision Name     ; _DECODER            ;
+-------------------+---------------------+


+------------------------------------------------------------------------------------------------------------------------------------------------+
; Flow Non-Default Global Settings                                                                                                               ;
+-------------------------------------+----------------------------------------+---------------+-------------+-----------------------------------+
; Assignment Name                     ; Value                                  ; Default Value ; Entity Name ; Section Id                        ;
+-------------------------------------+----------------------------------------+---------------+-------------+-----------------------------------+
; COMPILER_SIGNATURE_ID               ; 167786553389.160133315706268           ; --            ; --          ; --                                ;
; EDA_GENERATE_FUNCTIONAL_NETLIST     ; Off                                    ; --            ; --          ; eda_board_design_timing           ;
; EDA_GENERATE_FUNCTIONAL_NETLIST     ; Off                                    ; --            ; --          ; eda_board_design_boundary_scan    ;
; EDA_GENERATE_FUNCTIONAL_NETLIST     ; Off                                    ; --            ; --          ; eda_board_design_signal_integrity ;
; EDA_GENERATE_FUNCTIONAL_NETLIST     ; Off                                    ; --            ; --          ; eda_board_design_symbol           ;
; EDA_OUTPUT_DATA_FORMAT              ; Verilog Hdl                            ; --            ; --          ; eda_simulation                    ;
; EDA_SIMULATION_TOOL                 ; ModelSim (Verilog)                     ; <None>        ; --          ; --                                ;
; EDA_TIME_SCALE                      ; 1 ps                                   ; --            ; --          ; eda_simulation                    ;
; PARTITION_COLOR                     ; -- (Not supported for targeted family) ; --            ; --          ; Top                               ;
; PARTITION_FITTER_PRESERVATION_LEVEL ; -- (Not supported for targeted family) ; --            ; --          ; Top                               ;
; PARTITION_NETLIST_TYPE              ; -- (Not supported for targeted family) ; --            ; --          ; Top                               ;
; PROJECT_OUTPUT_DIRECTORY            ; output_files                           ; --            ; --          ; --                                ;
+-------------------------------------+----------------------------------------+---------------+-------------+-----------------------------------+


+--------------------------------------------------------------------------------------------------------------------------+
; Flow Elapsed Time                                                                                                        ;
+----------------------+--------------+-------------------------+---------------------+------------------------------------+
; Module Name          ; Elapsed Time ; Average Processors Used ; Peak Virtual Memory ; Total CPU Time (on all processors) ;
+----------------------+--------------+-------------------------+---------------------+------------------------------------+
; Analysis & Synthesis ; 00:00:27     ; 1.0                     ; 585 MB              ; 00:00:49                           ;
; Fitter               ; 00:00:10     ; 1.0                     ; 1031 MB             ; 00:00:08                           ;
; Assembler            ; 00:00:02     ; 1.0                     ; 539 MB              ; 00:00:02                           ;
; Timing Analyzer      ; 00:00:04     ; 1.0                     ; 600 MB              ; 00:00:03                           ;
; EDA Netlist Writer   ; 00:00:01     ; 1.0                     ; 490 MB              ; 00:00:01                           ;
; EDA Netlist Writer   ; 00:00:01     ; 1.0                     ; 483 MB              ; 00:00:01                           ;
; EDA Netlist Writer   ; 00:00:02     ; 1.0                     ; 497 MB              ; 00:00:02                           ;
; EDA Netlist Writer   ; 00:00:02     ; 1.0                     ; 483 MB              ; 00:00:01                           ;
; EDA Netlist Writer   ; 00:00:01     ; 1.0                     ; 497 MB              ; 00:00:02                           ;
; EDA Netlist Writer   ; 00:00:01     ; 1.0                     ; 484 MB              ; 00:00:01                           ;
; EDA Netlist Writer   ; 00:00:02     ; 1.0                     ; 497 MB              ; 00:00:02                           ;
; Total                ; 00:00:53     ; --                      ; --                  ; 00:01:12                           ;
+----------------------+--------------+-------------------------+---------------------+------------------------------------+


+-----------------------------------------------------------------------------------+
; Flow OS Summary                                                                   ;
+----------------------+------------------+-----------+------------+----------------+
; Module Name          ; Machine Hostname ; OS Name   ; OS Version ; Processor type ;
+----------------------+------------------+-----------+------------+----------------+
; Analysis & Synthesis ; Lenovo           ; Windows 7 ; 6.1        ; x86_64         ;
; Fitter               ; Lenovo           ; Windows 7 ; 6.1        ; x86_64         ;
; Assembler            ; Lenovo           ; Windows 7 ; 6.1        ; x86_64         ;
; Timing Analyzer      ; Lenovo           ; Windows 7 ; 6.1        ; x86_64         ;
; EDA Netlist Writer   ; Lenovo           ; Windows 7 ; 6.1        ; x86_64         ;
; EDA Netlist Writer   ; Lenovo           ; Windows 7 ; 6.1        ; x86_64         ;
; EDA Netlist Writer   ; Lenovo           ; Windows 7 ; 6.1        ; x86_64         ;
; EDA Netlist Writer   ; Lenovo           ; Windows 7 ; 6.1        ; x86_64         ;
; EDA Netlist Writer   ; Lenovo           ; Windows 7 ; 6.1        ; x86_64         ;
; EDA Netlist Writer   ; Lenovo           ; Windows 7 ; 6.1        ; x86_64         ;
; EDA Netlist Writer   ; Lenovo           ; Windows 7 ; 6.1        ; x86_64         ;
+----------------------+------------------+-----------+------------+----------------+


------------
; Flow Log ;
------------
quartus_map --read_settings_files=on --write_settings_files=off _DECODER -c _DECODER
quartus_fit --read_settings_files=off --write_settings_files=off _DECODER -c _DECODER
quartus_asm --read_settings_files=off --write_settings_files=off _DECODER -c _DECODER
quartus_sta _DECODER -c _DECODER
quartus_eda --read_settings_files=off --write_settings_files=off _DECODER -c _DECODER
quartus_eda --gen_testbench --tool=modelsim_oem --format=verilog --write_settings_files=off _DECODER -c _DECODER --vector_source=C:/intelFPGA_lite/20.1/lab001/DECODER/Waveform.vwf --testbench_file=C:/intelFPGA_lite/20.1/lab001/DECODER/simulation/qsim/Waveform.vwf.vt
quartus_eda --write_settings_files=off --simulation=on --functional=off --flatten_buses=off --timescale=1ps --tool=modelsim_oem --format=verilog --output_directory=C:/intelFPGA_lite/20.1/lab001/DECODER/simulation/qsim/ _DECODER -c _DECODER
quartus_eda --gen_testbench --tool=modelsim_oem --format=verilog --write_settings_files=off _DECODER -c _DECODER --vector_source=C:/intelFPGA_lite/20.1/lab001/DECODER/Waveform.vwf --testbench_file=C:/intelFPGA_lite/20.1/lab001/DECODER/simulation/qsim/Waveform.vwf.vt
quartus_eda --write_settings_files=off --simulation=on --functional=off --flatten_buses=off --timescale=1ps --tool=modelsim_oem --format=verilog --output_directory=C:/intelFPGA_lite/20.1/lab001/DECODER/simulation/qsim/ _DECODER -c _DECODER
quartus_eda --gen_testbench --tool=modelsim_oem --format=verilog --write_settings_files=off _DECODER -c _DECODER --vector_source=C:/intelFPGA_lite/20.1/lab001/DECODER/Waveform.vwf --testbench_file=C:/intelFPGA_lite/20.1/lab001/DECODER/simulation/qsim/Waveform.vwf.vt
quartus_eda --write_settings_files=off --simulation=on --functional=off --flatten_buses=off --timescale=1ps --tool=modelsim_oem --format=verilog --output_directory=C:/intelFPGA_lite/20.1/lab001/DECODER/simulation/qsim/ _DECODER -c _DECODER



