/*
WARNING: Do NOT edit the input and output ports in this file in a text
editor if you plan to continue editing the block that represents it in
the Block Editor! File corruption is VERY likely to occur.
*/
/*
Copyright (C) 1991-2013 Altera Corporation
Your use of Altera Corporation's design tools, logic functions 
and other software and tools, and its AMPP partner logic 
functions, and any output files from any of the foregoing 
(including device programming or simulation files), and any 
associated documentation or information are expressly subject 
to the terms and conditions of the Altera Program License 
Subscription Agreement, Altera MegaCore Function License 
Agreement, or other applicable license agreement, including, 
without limitation, that your use is for the sole purpose of 
programming logic devices manufactured by Altera and sold by 
Altera or its authorized distributors.  Please refer to the 
applicable agreement for further details.
*/
(header "graphic" (version "1.4"))
(pin
	(input)
	(rect 416 296 584 312)
	(text "INPUT" (rect 125 0 153 10)(font "Arial" (font_size 6)))
	(text "clk" (rect 5 0 19 12)(font "Arial" ))
	(pt 168 8)
	(drawing
		(line (pt 84 12)(pt 109 12))
		(line (pt 84 4)(pt 109 4))
		(line (pt 113 8)(pt 168 8))
		(line (pt 84 12)(pt 84 4))
		(line (pt 109 4)(pt 113 8))
		(line (pt 109 12)(pt 113 8))
	)
	(text "VCC" (rect 128 7 148 17)(font "Arial" (font_size 6)))
)
(pin
	(input)
	(rect 416 312 584 328)
	(text "INPUT" (rect 125 0 153 10)(font "Arial" (font_size 6)))
	(text "si" (rect 5 0 13 12)(font "Arial" ))
	(pt 168 8)
	(drawing
		(line (pt 84 12)(pt 109 12))
		(line (pt 84 4)(pt 109 4))
		(line (pt 113 8)(pt 168 8))
		(line (pt 84 12)(pt 84 4))
		(line (pt 109 4)(pt 113 8))
		(line (pt 109 12)(pt 113 8))
	)
	(text "VCC" (rect 128 7 148 17)(font "Arial" (font_size 6)))
)
(pin
	(input)
	(rect 416 328 584 344)
	(text "INPUT" (rect 125 0 153 10)(font "Arial" (font_size 6)))
	(text "dir" (rect 5 0 16 12)(font "Arial" ))
	(pt 168 8)
	(drawing
		(line (pt 84 12)(pt 109 12))
		(line (pt 84 4)(pt 109 4))
		(line (pt 113 8)(pt 168 8))
		(line (pt 84 12)(pt 84 4))
		(line (pt 109 4)(pt 113 8))
		(line (pt 109 12)(pt 113 8))
	)
	(text "VCC" (rect 128 7 148 17)(font "Arial" (font_size 6)))
)
(pin
	(output)
	(rect 728 296 904 312)
	(text "OUTPUT" (rect 1 0 39 10)(font "Arial" (font_size 6)))
	(text "so[7..0]" (rect 90 0 127 12)(font "Arial" ))
	(pt 0 8)
	(drawing
		(line (pt 0 8)(pt 52 8))
		(line (pt 52 4)(pt 78 4))
		(line (pt 52 12)(pt 78 12))
		(line (pt 52 12)(pt 52 4))
		(line (pt 78 4)(pt 82 8))
		(line (pt 82 8)(pt 78 12))
		(line (pt 78 12)(pt 82 8))
	)
)
(symbol
	(rect 584 272 728 384)
	(text "SHIFT_REG" (rect 5 0 66 12)(font "Arial" ))
	(text "inst" (rect 8 96 25 108)(font "Arial" ))
	(port
		(pt 0 32)
		(input)
		(text "clk" (rect 0 0 14 12)(font "Arial" ))
		(text "clk" (rect 21 27 35 39)(font "Arial" ))
		(line (pt 0 32)(pt 16 32))
	)
	(port
		(pt 0 48)
		(input)
		(text "si" (rect 0 0 8 12)(font "Arial" ))
		(text "si" (rect 21 43 29 55)(font "Arial" ))
		(line (pt 0 48)(pt 16 48))
	)
	(port
		(pt 0 64)
		(input)
		(text "dir" (rect 0 0 11 12)(font "Arial" ))
		(text "dir" (rect 21 59 32 71)(font "Arial" ))
		(line (pt 0 64)(pt 16 64))
	)
	(port
		(pt 144 32)
		(output)
		(text "so[7..0]" (rect 0 0 37 12)(font "Arial" ))
		(text "so[7..0]" (rect 92 27 123 39)(font "Arial" ))
		(line (pt 144 32)(pt 128 32)(line_width 3))
	)
	(drawing
		(rectangle (rect 16 16 128 96))
	)
)
