$comment
	File created using the following command:
		vcd file _DECODER.msim.vcd -direction
$end
$date
	Tue Sep 29 01:57:21 2020
$end
$version
	ModelSim Version 2020.1
$end
$timescale
	1ps
$end

$scope module _DECODER_vlg_vec_tst $end
$var reg 3 ! a [2:0] $end
$var wire 1 " y [4] $end
$var wire 1 # y [3] $end
$var wire 1 $ y [2] $end
$var wire 1 % y [1] $end
$var wire 1 & y [0] $end

$scope module i1 $end
$var wire 1 ' gnd $end
$var wire 1 ( vcc $end
$var wire 1 ) unknown $end
$var tri1 1 * devclrn $end
$var tri1 1 + devpor $end
$var tri1 1 , devoe $end
$var wire 1 - y[0]~output_o $end
$var wire 1 . y[1]~output_o $end
$var wire 1 / y[2]~output_o $end
$var wire 1 0 y[3]~output_o $end
$var wire 1 1 y[4]~output_o $end
$var wire 1 2 a[2]~input_o $end
$var wire 1 3 a[1]~input_o $end
$var wire 1 4 a[0]~input_o $end
$var wire 1 5 Equal0~0_combout $end
$var wire 1 6 Equal1~0_combout $end
$var wire 1 7 Equal2~0_combout $end
$var wire 1 8 Equal3~0_combout $end
$var wire 1 9 Equal4~0_combout $end
$upscope $end
$upscope $end
$enddefinitions $end
#0
$dumpvars
b0 !
x&
x%
x$
x#
x"
0'
1(
x)
1*
1+
1,
x-
x.
x/
x0
x1
02
03
04
x5
x6
x7
x8
x9
$end
#659
08
#664
06
#978
09
#3766
15
#3773
07
#4293
0.
0%
#4308
00
0#
#4403
01
0"
#7217
0/
0$
#8423
1-
1&
#30000
b1 !
#30596
14
#31242
05
#31253
16
#34879
1.
1%
#35988
0-
0&
#60000
b11 !
b10 !
#60596
13
#60761
04
#61425
06
#61435
15
#64118
05
#64128
17
#65054
0.
0%
#67594
1/
1$
#90000
b11 !
#90596
14
#91238
07
#91249
18
#94682
0/
0$
#94931
10
1#
#120000
b111 !
b101 !
b100 !
#120596
12
#120761
03
04
#121525
08
#124535
19
#125174
00
0#
#127985
11
1"
#150000
b101 !
#150596
14
#151240
09
#154665
01
0"
#180000
b111 !
b110 !
#180596
13
#180761
04
#181432
19
#184128
09
#184882
11
1"
#187553
01
0"
#210000
b111 !
#210596
14
#240000
