
laba1_sw.elf:     file format elf32-littlenios2
laba1_sw.elf
architecture: nios2, flags 0x00000112:
EXEC_P, HAS_SYMS, D_PAGED
start address 0x00002020

Program Header:
    LOAD off    0x00001000 vaddr 0x00002000 paddr 0x00002000 align 2**12
         filesz 0x00000020 memsz 0x00000020 flags r-x
    LOAD off    0x00001020 vaddr 0x00002020 paddr 0x00002020 align 2**12
         filesz 0x00000564 memsz 0x00000574 flags rwx

Sections:
Idx Name          Size      VMA       LMA       File off  Algn
  0 .entry        00000020  00002000  00002000  00001000  2**5
                  CONTENTS, ALLOC, LOAD, READONLY, CODE
  1 .text         00000564  00002020  00002020  00001020  2**2
                  CONTENTS, ALLOC, LOAD, READONLY, CODE
  2 .bss          00000010  00002584  00002584  00001584  2**2
                  ALLOC, SMALL_DATA
  3 .comment      00000026  00000000  00000000  00001584  2**0
                  CONTENTS, READONLY
  4 .debug_aranges 00000188  00000000  00000000  000015b0  2**3
                  CONTENTS, READONLY, DEBUGGING
  5 .debug_pubnames 000001e4  00000000  00000000  00001738  2**0
                  CONTENTS, READONLY, DEBUGGING
  6 .debug_info   0000131c  00000000  00000000  0000191c  2**0
                  CONTENTS, READONLY, DEBUGGING
  7 .debug_abbrev 00000551  00000000  00000000  00002c38  2**0
                  CONTENTS, READONLY, DEBUGGING
  8 .debug_line   00001657  00000000  00000000  00003189  2**0
                  CONTENTS, READONLY, DEBUGGING
  9 .debug_frame  00000254  00000000  00000000  000047e0  2**2
                  CONTENTS, READONLY, DEBUGGING
 10 .debug_str    00000240  00000000  00000000  00004a34  2**0
                  CONTENTS, READONLY, DEBUGGING
 11 .debug_loc    000003fa  00000000  00000000  00004c74  2**0
                  CONTENTS, READONLY, DEBUGGING
 12 .debug_alt_sim_info 00000040  00000000  00000000  00005070  2**2
                  CONTENTS, READONLY, DEBUGGING
 13 .debug_ranges 00000020  00000000  00000000  000050b0  2**3
                  CONTENTS, READONLY, DEBUGGING
 14 .thread_model 00000003  00000000  00000000  00005de2  2**0
                  CONTENTS, READONLY
 15 .cpu          0000000a  00000000  00000000  00005de5  2**0
                  CONTENTS, READONLY
 16 .qsys         00000001  00000000  00000000  00005def  2**0
                  CONTENTS, READONLY
 17 .simulation_enabled 00000001  00000000  00000000  00005df0  2**0
                  CONTENTS, READONLY
 18 .stderr_dev   00000004  00000000  00000000  00005df1  2**0
                  CONTENTS, READONLY
 19 .stdin_dev    00000004  00000000  00000000  00005df5  2**0
                  CONTENTS, READONLY
 20 .stdout_dev   00000004  00000000  00000000  00005df9  2**0
                  CONTENTS, READONLY
 21 .sopc_system_name 0000000d  00000000  00000000  00005dfd  2**0
                  CONTENTS, READONLY
 22 .quartus_project_dir 00000032  00000000  00000000  00005e0a  2**0
                  CONTENTS, READONLY
 23 .sopcinfo     000210a3  00000000  00000000  00005e3c  2**0
                  CONTENTS, READONLY
SYMBOL TABLE:
00002000 l    d  .entry	00000000 .entry
00002020 l    d  .text	00000000 .text
00002584 l    d  .bss	00000000 .bss
00000000 l    d  .comment	00000000 .comment
00000000 l    d  .debug_aranges	00000000 .debug_aranges
00000000 l    d  .debug_pubnames	00000000 .debug_pubnames
00000000 l    d  .debug_info	00000000 .debug_info
00000000 l    d  .debug_abbrev	00000000 .debug_abbrev
00000000 l    d  .debug_line	00000000 .debug_line
00000000 l    d  .debug_frame	00000000 .debug_frame
00000000 l    d  .debug_str	00000000 .debug_str
00000000 l    d  .debug_loc	00000000 .debug_loc
00000000 l    d  .debug_alt_sim_info	00000000 .debug_alt_sim_info
00000000 l    d  .debug_ranges	00000000 .debug_ranges
00002058 l       .text	00000000 alt_after_alt_main
00000000 l    df *ABS*	00000000 laba1_source.c
00002584 l     O .bss	00000004 count
00000000 l    df *ABS*	00000000 alt_load.c
00002120 l     F .text	0000006c alt_load_section
00000000 l    df *ABS*	00000000 alt_main.c
00000000 l    df *ABS*	00000000 alt_usleep.c
00000000 l    df *ABS*	00000000 alt_sys_init.c
00000000 l    df *ABS*	00000000 alt_busy_sleep.c
00000000 l    df *ABS*	00000000 alt_dcache_flush_all.c
00000000 l    df *ABS*	00000000 alt_icache_flush_all.c
00000000 l    df *ABS*	00000000 altera_nios2_qsys_irq.c
00000000 l    df *ABS*	00000000 lib2-divmod.c
00002400 l     F .text	0000007c udivmodsi4
00000000 l    df *ABS*	00000000 lib2-mul.c
0000218c g     F .text	00000040 alt_main
00002584 g       *ABS*	00000000 __flash_rwdata_start
00002000 g     F .entry	0000000c __reset
00002020 g       *ABS*	00000000 __flash_exceptions_start
0000258c g     O .bss	00000004 alt_argv
0000a584 g       *ABS*	00000000 _gp
000021cc g     F .text	00000030 usleep
0000253c g     F .text	00000008 __udivsi3
00002594 g       *ABS*	00000000 __bss_end
00002000 g       *ABS*	00000000 __alt_mem_onchip_mem
000023a8 g     F .text	0000001c alt_dcache_flush_all
00002584 g       *ABS*	00000000 __ram_rwdata_end
00002584 g       *ABS*	00000000 __ram_rodata_end
00002544 g     F .text	00000008 __umodsi3
00002594 g       *ABS*	00000000 end
00004000 g       *ABS*	00000000 __alt_stack_pointer
00002020 g     F .text	0000003c _start
00002230 g     F .text	0000001c alt_sys_init
0000254c g     F .text	00000038 __mulsi3
00002584 g       *ABS*	00000000 __ram_rwdata_start
00002584 g       *ABS*	00000000 __ram_rodata_start
0000224c g     F .text	0000015c alt_busy_sleep
00002594 g       *ABS*	00000000 __alt_stack_base
00002584 g       *ABS*	00000000 __bss_start
0000205c g     F .text	00000044 main
00002590 g     O .bss	00000004 alt_envp
0000247c g     F .text	00000060 __divsi3
00002584 g       *ABS*	00000000 __flash_rodata_start
000021fc g     F .text	00000034 alt_irq_init
00002588 g     O .bss	00000004 alt_argc
00002020 g       *ABS*	00000000 __ram_exceptions_start
00002584 g       *ABS*	00000000 _edata
00002594 g       *ABS*	00000000 _end
00002020 g       *ABS*	00000000 __ram_exceptions_end
000023e0 g     F .text	00000020 altera_nios2_qsys_irq_init
0000200c g       .entry	00000000 exit
000024dc g     F .text	00000060 __modsi3
00004000 g       *ABS*	00000000 __alt_data_end
0000200c g       .entry	00000000 _exit
000023c4 g     F .text	0000001c alt_icache_flush_all
000020a0 g     F .text	00000080 alt_load



Disassembly of section .entry:

00002000 <__reset>:
 * Jump to the _start entry point in the .text section if reset code
 * is allowed or if optimizing for RTL simulation.
 */
#if defined(ALT_ALLOW_CODE_AT_RESET) || defined(ALT_SIM_OPTIMIZE)
    /* Jump to the _start entry point in the .text section. */
    movhi r1, %hi(_start)
    2000:	00400034 	movhi	at,0
    ori r1, r1, %lo(_start)
    2004:	08480814 	ori	at,at,8224
    jmp r1
    2008:	0800683a 	jmp	at

0000200c <_exit>:
	...

Disassembly of section .text:

00002020 <_start>:
#if (NIOS2_NUM_OF_SHADOW_REG_SETS == 0)    
    /*
     * Now that the caches are initialized, set up the stack pointer.
     * The value provided by the linker is assumed to be correctly aligned.
     */
    movhi sp, %hi(__alt_stack_pointer)
    2020:	06c00034 	movhi	sp,0
    ori sp, sp, %lo(__alt_stack_pointer)
    2024:	ded00014 	ori	sp,sp,16384

    /* Set up the global pointer. */
    movhi gp, %hi(_gp)
    2028:	06800034 	movhi	gp,0
    ori gp, gp, %lo(_gp)
    202c:	d6a96114 	ori	gp,gp,42372
 */
#ifndef ALT_SIM_OPTIMIZE
    /* Log that the BSS is about to be cleared. */
    ALT_LOG_PUTS(alt_log_msg_bss)

    movhi r2, %hi(__bss_start)
    2030:	00800034 	movhi	r2,0
    ori r2, r2, %lo(__bss_start)
    2034:	10896114 	ori	r2,r2,9604

    movhi r3, %hi(__bss_end)
    2038:	00c00034 	movhi	r3,0
    ori r3, r3, %lo(__bss_end)
    203c:	18c96514 	ori	r3,r3,9620

    beq r2, r3, 1f
    2040:	10c00326 	beq	r2,r3,2050 <_start+0x30>

0:
    stw zero, (r2)
    2044:	10000015 	stw	zero,0(r2)
    addi r2, r2, 4
    2048:	10800104 	addi	r2,r2,4
    bltu r2, r3, 0b
    204c:	10fffd36 	bltu	r2,r3,2044 <_start+0x24>
     * section aren't defined until alt_load() has been called).
     */
    mov   et, zero
#endif

    call alt_load
    2050:	00020a00 	call	20a0 <alt_load>

    /* Log that alt_main is about to be called. */
    ALT_LOG_PUTS(alt_log_msg_alt_main)

    /* Call the C entry point. It should never return. */
    call alt_main
    2054:	000218c0 	call	218c <alt_main>

00002058 <alt_after_alt_main>:

    /* Wait in infinite loop in case alt_main does return. */
alt_after_alt_main:
    br alt_after_alt_main
    2058:	003fff06 	br	2058 <alt_after_alt_main>

0000205c <main>:
#include "system.h"
#include <stdio.h>
#include <unistd.h>
static int count;
int main(void)
{ count = 255;
    205c:	defffe04 	addi	sp,sp,-8
    2060:	dfc00115 	stw	ra,4(sp)
    2064:	df000015 	stw	fp,0(sp)
    2068:	d839883a 	mov	fp,sp
    206c:	00803fc4 	movi	r2,255
    2070:	d0a00015 	stw	r2,-32768(gp)
while( 1 ) {
usleep(500000);
    2074:	01000234 	movhi	r4,8
    2078:	21284804 	addi	r4,r4,-24288
    207c:	00021cc0 	call	21cc <usleep>
IOWR_ALTERA_AVALON_PIO_DATA( PIO_BASE, ~count );
    2080:	d0a00017 	ldw	r2,-32768(gp)
    2084:	0086303a 	nor	r3,zero,r2
    2088:	00900404 	movi	r2,16400
    208c:	10c00035 	stwio	r3,0(r2)
count++; /* Continue 0-ff counting loop. */ }
    2090:	d0a00017 	ldw	r2,-32768(gp)
    2094:	10800044 	addi	r2,r2,1
    2098:	d0a00015 	stw	r2,-32768(gp)
    209c:	003ff506 	br	2074 <main+0x18>

000020a0 <alt_load>:
 * there is no bootloader, so this application is responsible for loading to
 * RAM any sections that are required.
 */  

void alt_load (void)
{
    20a0:	defffe04 	addi	sp,sp,-8
    20a4:	dfc00115 	stw	ra,4(sp)
    20a8:	df000015 	stw	fp,0(sp)
    20ac:	d839883a 	mov	fp,sp
  /* 
   * Copy the .rwdata section. 
   */

  alt_load_section (&__flash_rwdata_start, 
    20b0:	01000034 	movhi	r4,0
    20b4:	21096104 	addi	r4,r4,9604
    20b8:	01400034 	movhi	r5,0
    20bc:	29496104 	addi	r5,r5,9604
    20c0:	01800034 	movhi	r6,0
    20c4:	31896104 	addi	r6,r6,9604
    20c8:	00021200 	call	2120 <alt_load_section>

  /*
   * Copy the exception handler.
   */

  alt_load_section (&__flash_exceptions_start, 
    20cc:	01000034 	movhi	r4,0
    20d0:	21080804 	addi	r4,r4,8224
    20d4:	01400034 	movhi	r5,0
    20d8:	29480804 	addi	r5,r5,8224
    20dc:	01800034 	movhi	r6,0
    20e0:	31880804 	addi	r6,r6,8224
    20e4:	00021200 	call	2120 <alt_load_section>

  /*
   * Copy the .rodata section.
   */

  alt_load_section (&__flash_rodata_start, 
    20e8:	01000034 	movhi	r4,0
    20ec:	21096104 	addi	r4,r4,9604
    20f0:	01400034 	movhi	r5,0
    20f4:	29496104 	addi	r5,r5,9604
    20f8:	01800034 	movhi	r6,0
    20fc:	31896104 	addi	r6,r6,9604
    2100:	00021200 	call	2120 <alt_load_section>
  
  /*
   * Now ensure that the caches are in synch.
   */
  
  alt_dcache_flush_all();
    2104:	00023a80 	call	23a8 <alt_dcache_flush_all>
  alt_icache_flush_all();
    2108:	00023c40 	call	23c4 <alt_icache_flush_all>
}
    210c:	e037883a 	mov	sp,fp
    2110:	dfc00117 	ldw	ra,4(sp)
    2114:	df000017 	ldw	fp,0(sp)
    2118:	dec00204 	addi	sp,sp,8
    211c:	f800283a 	ret

00002120 <alt_load_section>:
 */

static void ALT_INLINE alt_load_section (alt_u32* from, 
                                         alt_u32* to, 
                                         alt_u32* end)
{
    2120:	defffc04 	addi	sp,sp,-16
    2124:	df000315 	stw	fp,12(sp)
    2128:	df000304 	addi	fp,sp,12
    212c:	e13ffd15 	stw	r4,-12(fp)
    2130:	e17ffe15 	stw	r5,-8(fp)
    2134:	e1bfff15 	stw	r6,-4(fp)
  if (to != from)
    2138:	e0fffe17 	ldw	r3,-8(fp)
    213c:	e0bffd17 	ldw	r2,-12(fp)
    2140:	18800e26 	beq	r3,r2,217c <alt_load_section+0x5c>
  {
    while( to != end )
    2144:	00000a06 	br	2170 <alt_load_section+0x50>
    {
      *to++ = *from++;
    2148:	e0bffd17 	ldw	r2,-12(fp)
    214c:	10c00017 	ldw	r3,0(r2)
    2150:	e0bffe17 	ldw	r2,-8(fp)
    2154:	10c00015 	stw	r3,0(r2)
    2158:	e0bffe17 	ldw	r2,-8(fp)
    215c:	10800104 	addi	r2,r2,4
    2160:	e0bffe15 	stw	r2,-8(fp)
    2164:	e0bffd17 	ldw	r2,-12(fp)
    2168:	10800104 	addi	r2,r2,4
    216c:	e0bffd15 	stw	r2,-12(fp)
                                         alt_u32* to, 
                                         alt_u32* end)
{
  if (to != from)
  {
    while( to != end )
    2170:	e0fffe17 	ldw	r3,-8(fp)
    2174:	e0bfff17 	ldw	r2,-4(fp)
    2178:	18bff31e 	bne	r3,r2,2148 <alt_load_section+0x28>
    {
      *to++ = *from++;
    }
  }
}
    217c:	e037883a 	mov	sp,fp
    2180:	df000017 	ldw	fp,0(sp)
    2184:	dec00104 	addi	sp,sp,4
    2188:	f800283a 	ret

0000218c <alt_main>:
 * devices/filesystems/components in the system; and call the entry point for
 * the users application, i.e. main().
 */

void alt_main (void)
{
    218c:	defffe04 	addi	sp,sp,-8
    2190:	dfc00115 	stw	ra,4(sp)
    2194:	df000015 	stw	fp,0(sp)
    2198:	d839883a 	mov	fp,sp
#endif

  /* ALT LOG - please see HAL/sys/alt_log_printf.h for details */
  ALT_LOG_PRINT_BOOT("[alt_main.c] Entering alt_main, calling alt_irq_init.\r\n");
  /* Initialize the interrupt controller. */
  alt_irq_init (NULL);
    219c:	0009883a 	mov	r4,zero
    21a0:	00021fc0 	call	21fc <alt_irq_init>
  ALT_LOG_PRINT_BOOT("[alt_main.c] Done OS Init, calling alt_sem_create.\r\n");
  ALT_SEM_CREATE (&alt_fd_list_lock, 1);

  /* Initialize the device drivers/software components. */
  ALT_LOG_PRINT_BOOT("[alt_main.c] Calling alt_sys_init.\r\n");
  alt_sys_init();
    21a4:	00022300 	call	2230 <alt_sys_init>
   */

  ALT_LOG_PRINT_BOOT("[alt_main.c] Calling main.\r\n");

#ifdef ALT_NO_EXIT
  main (alt_argc, alt_argv, alt_envp);
    21a8:	d1200117 	ldw	r4,-32764(gp)
    21ac:	d1600217 	ldw	r5,-32760(gp)
    21b0:	d1a00317 	ldw	r6,-32756(gp)
    21b4:	000205c0 	call	205c <main>
  close(STDOUT_FILENO);
  exit (result);
#endif

  ALT_LOG_PRINT_BOOT("[alt_main.c] After main - we should not be here?.\r\n");
}
    21b8:	e037883a 	mov	sp,fp
    21bc:	dfc00117 	ldw	ra,4(sp)
    21c0:	df000017 	ldw	fp,0(sp)
    21c4:	dec00204 	addi	sp,sp,8
    21c8:	f800283a 	ret

000021cc <usleep>:
#if defined (__GNUC__) && __GNUC__ >= 4
int ALT_USLEEP (useconds_t us)
#else
unsigned int ALT_USLEEP (unsigned int us)
#endif
{
    21cc:	defffd04 	addi	sp,sp,-12
    21d0:	dfc00215 	stw	ra,8(sp)
    21d4:	df000115 	stw	fp,4(sp)
    21d8:	df000104 	addi	fp,sp,4
    21dc:	e13fff15 	stw	r4,-4(fp)
  return alt_busy_sleep(us);
    21e0:	e13fff17 	ldw	r4,-4(fp)
    21e4:	000224c0 	call	224c <alt_busy_sleep>
}
    21e8:	e037883a 	mov	sp,fp
    21ec:	dfc00117 	ldw	ra,4(sp)
    21f0:	df000017 	ldw	fp,0(sp)
    21f4:	dec00204 	addi	sp,sp,8
    21f8:	f800283a 	ret

000021fc <alt_irq_init>:
 * The "base" parameter is ignored and only
 * present for backwards-compatibility.
 */

void alt_irq_init ( const void* base )
{
    21fc:	defffd04 	addi	sp,sp,-12
    2200:	dfc00215 	stw	ra,8(sp)
    2204:	df000115 	stw	fp,4(sp)
    2208:	df000104 	addi	fp,sp,4
    220c:	e13fff15 	stw	r4,-4(fp)
    ALTERA_NIOS2_QSYS_IRQ_INIT ( NIOS2_QSYS, nios2_qsys);
    2210:	00023e00 	call	23e0 <altera_nios2_qsys_irq_init>
 * alt_irq_cpu_enable_interrupts() enables the CPU to start taking interrupts.
 */
static ALT_INLINE void ALT_ALWAYS_INLINE 
       alt_irq_cpu_enable_interrupts ()
{
    NIOS2_WRITE_STATUS(NIOS2_STATUS_PIE_MSK
    2214:	00800044 	movi	r2,1
    2218:	1001703a 	wrctl	status,r2
    alt_irq_cpu_enable_interrupts();
}
    221c:	e037883a 	mov	sp,fp
    2220:	dfc00117 	ldw	ra,4(sp)
    2224:	df000017 	ldw	fp,0(sp)
    2228:	dec00204 	addi	sp,sp,8
    222c:	f800283a 	ret

00002230 <alt_sys_init>:
 * Initialize the non-interrupt controller devices.
 * Called after alt_irq_init().
 */

void alt_sys_init( void )
{
    2230:	deffff04 	addi	sp,sp,-4
    2234:	df000015 	stw	fp,0(sp)
    2238:	d839883a 	mov	fp,sp
}
    223c:	e037883a 	mov	sp,fp
    2240:	df000017 	ldw	fp,0(sp)
    2244:	dec00104 	addi	sp,sp,4
    2248:	f800283a 	ret

0000224c <alt_busy_sleep>:
#include "alt_types.h"

#include "priv/alt_busy_sleep.h"

unsigned int alt_busy_sleep (unsigned int us)
{
    224c:	defffa04 	addi	sp,sp,-24
    2250:	dfc00515 	stw	ra,20(sp)
    2254:	df000415 	stw	fp,16(sp)
    2258:	df000404 	addi	fp,sp,16
    225c:	e13fff15 	stw	r4,-4(fp)
  int big_loops;
  alt_u32 cycles_per_loop;
  
  if (!strcmp(NIOS2_CPU_IMPLEMENTATION,"tiny"))
  {
    cycles_per_loop = 9;
    2260:	00800244 	movi	r2,9
    2264:	e0bffc15 	stw	r2,-16(fp)
  {
    cycles_per_loop = 3;
  }
  

  big_loops = us / (INT_MAX/
    2268:	e13ffc17 	ldw	r4,-16(fp)
    226c:	014003f4 	movhi	r5,15
    2270:	29509004 	addi	r5,r5,16960
    2274:	000254c0 	call	254c <__mulsi3>
    2278:	100b883a 	mov	r5,r2
    227c:	01005f74 	movhi	r4,381
    2280:	211e1004 	addi	r4,r4,30784
    2284:	000253c0 	call	253c <__udivsi3>
    2288:	100b883a 	mov	r5,r2
    228c:	01200034 	movhi	r4,32768
    2290:	213fffc4 	addi	r4,r4,-1
    2294:	000253c0 	call	253c <__udivsi3>
    2298:	100b883a 	mov	r5,r2
    229c:	e13fff17 	ldw	r4,-4(fp)
    22a0:	000253c0 	call	253c <__udivsi3>
    22a4:	e0bffd15 	stw	r2,-12(fp)
  (ALT_CPU_FREQ/(cycles_per_loop * 1000000)));

  if (big_loops)
    22a8:	e0bffd17 	ldw	r2,-12(fp)
    22ac:	1005003a 	cmpeq	r2,r2,zero
    22b0:	10002a1e 	bne	r2,zero,235c <alt_busy_sleep+0x110>
  {
    for(i=0;i<big_loops;i++)
    22b4:	e03ffe15 	stw	zero,-8(fp)
    22b8:	00001706 	br	2318 <alt_busy_sleep+0xcc>
      /*
      * Do NOT Try to single step the asm statement below 
      * (single step will never return)
      * Step out of this function or set a breakpoint after the asm statements
      */
      __asm__ volatile (
    22bc:	00a00034 	movhi	r2,32768
    22c0:	10bfffc4 	addi	r2,r2,-1
    22c4:	10bfffc4 	addi	r2,r2,-1
    22c8:	103ffe1e 	bne	r2,zero,22c4 <alt_busy_sleep+0x78>
        "\n1:"
        "\n\t.pushsection .debug_alt_sim_info"
        "\n\t.int 4, 0, 0b, 1b"
        "\n\t.popsection"
        :: "r" (INT_MAX));
      us -= (INT_MAX/(ALT_CPU_FREQ/
    22cc:	e13ffc17 	ldw	r4,-16(fp)
    22d0:	014003f4 	movhi	r5,15
    22d4:	29509004 	addi	r5,r5,16960
    22d8:	000254c0 	call	254c <__mulsi3>
    22dc:	100b883a 	mov	r5,r2
    22e0:	01005f74 	movhi	r4,381
    22e4:	211e1004 	addi	r4,r4,30784
    22e8:	000253c0 	call	253c <__udivsi3>
    22ec:	100b883a 	mov	r5,r2
    22f0:	01200034 	movhi	r4,32768
    22f4:	213fffc4 	addi	r4,r4,-1
    22f8:	000253c0 	call	253c <__udivsi3>
    22fc:	1007883a 	mov	r3,r2
    2300:	e0bfff17 	ldw	r2,-4(fp)
    2304:	10c5c83a 	sub	r2,r2,r3
    2308:	e0bfff15 	stw	r2,-4(fp)
  big_loops = us / (INT_MAX/
  (ALT_CPU_FREQ/(cycles_per_loop * 1000000)));

  if (big_loops)
  {
    for(i=0;i<big_loops;i++)
    230c:	e0bffe17 	ldw	r2,-8(fp)
    2310:	10800044 	addi	r2,r2,1
    2314:	e0bffe15 	stw	r2,-8(fp)
    2318:	e0fffe17 	ldw	r3,-8(fp)
    231c:	e0bffd17 	ldw	r2,-12(fp)
    2320:	18bfe616 	blt	r3,r2,22bc <alt_busy_sleep+0x70>
    /*
    * Do NOT Try to single step the asm statement below 
    * (single step will never return)
    * Step out of this function or set a breakpoint after the asm statements
    */
    __asm__ volatile (
    2324:	e13ffc17 	ldw	r4,-16(fp)
    2328:	014003f4 	movhi	r5,15
    232c:	29509004 	addi	r5,r5,16960
    2330:	000254c0 	call	254c <__mulsi3>
    2334:	100b883a 	mov	r5,r2
    2338:	01005f74 	movhi	r4,381
    233c:	211e1004 	addi	r4,r4,30784
    2340:	000253c0 	call	253c <__udivsi3>
    2344:	1009883a 	mov	r4,r2
    2348:	e17fff17 	ldw	r5,-4(fp)
    234c:	000254c0 	call	254c <__mulsi3>
    2350:	10bfffc4 	addi	r2,r2,-1
    2354:	103ffe1e 	bne	r2,zero,2350 <alt_busy_sleep+0x104>
    2358:	00000d06 	br	2390 <alt_busy_sleep+0x144>
    /*
    * Do NOT Try to single step the asm statement below 
    * (single step will never return)
    * Step out of this function or set a breakpoint after the asm statements
    */
    __asm__ volatile (
    235c:	e13ffc17 	ldw	r4,-16(fp)
    2360:	014003f4 	movhi	r5,15
    2364:	29509004 	addi	r5,r5,16960
    2368:	000254c0 	call	254c <__mulsi3>
    236c:	100b883a 	mov	r5,r2
    2370:	01005f74 	movhi	r4,381
    2374:	211e1004 	addi	r4,r4,30784
    2378:	000253c0 	call	253c <__udivsi3>
    237c:	1009883a 	mov	r4,r2
    2380:	e17fff17 	ldw	r5,-4(fp)
    2384:	000254c0 	call	254c <__mulsi3>
    2388:	10bfffc4 	addi	r2,r2,-1
    238c:	00bffe16 	blt	zero,r2,2388 <alt_busy_sleep+0x13c>
      "\n\t.int 4, 0, 0b, 1b"
      "\n\t.popsection"
      :: "r" (us*(ALT_CPU_FREQ/(cycles_per_loop * 1000000))));
  }
#endif /* #ifndef ALT_SIM_OPTIMIZE */
  return 0;
    2390:	0005883a 	mov	r2,zero
}
    2394:	e037883a 	mov	sp,fp
    2398:	dfc00117 	ldw	ra,4(sp)
    239c:	df000017 	ldw	fp,0(sp)
    23a0:	dec00204 	addi	sp,sp,8
    23a4:	f800283a 	ret

000023a8 <alt_dcache_flush_all>:
/*
 * alt_dcache_flush_all() is called to flush the entire data cache.
 */

void alt_dcache_flush_all (void)
{
    23a8:	deffff04 	addi	sp,sp,-4
    23ac:	df000015 	stw	fp,0(sp)
    23b0:	d839883a 	mov	fp,sp
  for (i = (char*) 0; i < (char*) NIOS2_DCACHE_SIZE; i+= NIOS2_DCACHE_LINE_SIZE)
  { 
    __asm__ volatile ("flushd (%0)" :: "r" (i));
  }
#endif /* NIOS2_DCACHE_SIZE > 0 */
}
    23b4:	e037883a 	mov	sp,fp
    23b8:	df000017 	ldw	fp,0(sp)
    23bc:	dec00104 	addi	sp,sp,4
    23c0:	f800283a 	ret

000023c4 <alt_icache_flush_all>:
/*
 * alt_icache_flush_all() is called to flush the entire instruction cache.
 */

void alt_icache_flush_all (void)
{
    23c4:	deffff04 	addi	sp,sp,-4
    23c8:	df000015 	stw	fp,0(sp)
    23cc:	d839883a 	mov	fp,sp
#if NIOS2_ICACHE_SIZE > 0
  alt_icache_flush (0, NIOS2_ICACHE_SIZE);
#endif
}
    23d0:	e037883a 	mov	sp,fp
    23d4:	df000017 	ldw	fp,0(sp)
    23d8:	dec00104 	addi	sp,sp,4
    23dc:	f800283a 	ret

000023e0 <altera_nios2_qsys_irq_init>:
/*
 * To initialize the internal interrupt controller, just clear the IENABLE
 * register so that all possible IRQs are disabled.
 */
void altera_nios2_qsys_irq_init(void) 
{
    23e0:	deffff04 	addi	sp,sp,-4
    23e4:	df000015 	stw	fp,0(sp)
    23e8:	d839883a 	mov	fp,sp
    NIOS2_WRITE_IENABLE(0);
    23ec:	000170fa 	wrctl	ienable,zero
}
    23f0:	e037883a 	mov	sp,fp
    23f4:	df000017 	ldw	fp,0(sp)
    23f8:	dec00104 	addi	sp,sp,4
    23fc:	f800283a 	ret

00002400 <udivmodsi4>:
    2400:	29001b2e 	bgeu	r5,r4,2470 <udivmodsi4+0x70>
    2404:	28001a16 	blt	r5,zero,2470 <udivmodsi4+0x70>
    2408:	00800044 	movi	r2,1
    240c:	0007883a 	mov	r3,zero
    2410:	01c007c4 	movi	r7,31
    2414:	00000306 	br	2424 <udivmodsi4+0x24>
    2418:	19c01326 	beq	r3,r7,2468 <udivmodsi4+0x68>
    241c:	18c00044 	addi	r3,r3,1
    2420:	28000416 	blt	r5,zero,2434 <udivmodsi4+0x34>
    2424:	294b883a 	add	r5,r5,r5
    2428:	1085883a 	add	r2,r2,r2
    242c:	293ffa36 	bltu	r5,r4,2418 <udivmodsi4+0x18>
    2430:	10000d26 	beq	r2,zero,2468 <udivmodsi4+0x68>
    2434:	0007883a 	mov	r3,zero
    2438:	21400236 	bltu	r4,r5,2444 <udivmodsi4+0x44>
    243c:	2149c83a 	sub	r4,r4,r5
    2440:	1886b03a 	or	r3,r3,r2
    2444:	1004d07a 	srli	r2,r2,1
    2448:	280ad07a 	srli	r5,r5,1
    244c:	103ffa1e 	bne	r2,zero,2438 <udivmodsi4+0x38>
    2450:	30000226 	beq	r6,zero,245c <udivmodsi4+0x5c>
    2454:	2005883a 	mov	r2,r4
    2458:	f800283a 	ret
    245c:	1809883a 	mov	r4,r3
    2460:	2005883a 	mov	r2,r4
    2464:	f800283a 	ret
    2468:	0007883a 	mov	r3,zero
    246c:	003ff806 	br	2450 <udivmodsi4+0x50>
    2470:	00800044 	movi	r2,1
    2474:	0007883a 	mov	r3,zero
    2478:	003fef06 	br	2438 <udivmodsi4+0x38>

0000247c <__divsi3>:
    247c:	defffe04 	addi	sp,sp,-8
    2480:	dc000015 	stw	r16,0(sp)
    2484:	dfc00115 	stw	ra,4(sp)
    2488:	0021883a 	mov	r16,zero
    248c:	20000c16 	blt	r4,zero,24c0 <__divsi3+0x44>
    2490:	000d883a 	mov	r6,zero
    2494:	28000e16 	blt	r5,zero,24d0 <__divsi3+0x54>
    2498:	00024000 	call	2400 <udivmodsi4>
    249c:	1007883a 	mov	r3,r2
    24a0:	8005003a 	cmpeq	r2,r16,zero
    24a4:	1000011e 	bne	r2,zero,24ac <__divsi3+0x30>
    24a8:	00c7c83a 	sub	r3,zero,r3
    24ac:	1805883a 	mov	r2,r3
    24b0:	dfc00117 	ldw	ra,4(sp)
    24b4:	dc000017 	ldw	r16,0(sp)
    24b8:	dec00204 	addi	sp,sp,8
    24bc:	f800283a 	ret
    24c0:	0109c83a 	sub	r4,zero,r4
    24c4:	04000044 	movi	r16,1
    24c8:	000d883a 	mov	r6,zero
    24cc:	283ff20e 	bge	r5,zero,2498 <__divsi3+0x1c>
    24d0:	014bc83a 	sub	r5,zero,r5
    24d4:	8021003a 	cmpeq	r16,r16,zero
    24d8:	003fef06 	br	2498 <__divsi3+0x1c>

000024dc <__modsi3>:
    24dc:	deffff04 	addi	sp,sp,-4
    24e0:	dfc00015 	stw	ra,0(sp)
    24e4:	01800044 	movi	r6,1
    24e8:	2807883a 	mov	r3,r5
    24ec:	20000416 	blt	r4,zero,2500 <__modsi3+0x24>
    24f0:	28000c16 	blt	r5,zero,2524 <__modsi3+0x48>
    24f4:	dfc00017 	ldw	ra,0(sp)
    24f8:	dec00104 	addi	sp,sp,4
    24fc:	00024001 	jmpi	2400 <udivmodsi4>
    2500:	0109c83a 	sub	r4,zero,r4
    2504:	28000b16 	blt	r5,zero,2534 <__modsi3+0x58>
    2508:	180b883a 	mov	r5,r3
    250c:	01800044 	movi	r6,1
    2510:	00024000 	call	2400 <udivmodsi4>
    2514:	0085c83a 	sub	r2,zero,r2
    2518:	dfc00017 	ldw	ra,0(sp)
    251c:	dec00104 	addi	sp,sp,4
    2520:	f800283a 	ret
    2524:	014bc83a 	sub	r5,zero,r5
    2528:	dfc00017 	ldw	ra,0(sp)
    252c:	dec00104 	addi	sp,sp,4
    2530:	00024001 	jmpi	2400 <udivmodsi4>
    2534:	0147c83a 	sub	r3,zero,r5
    2538:	003ff306 	br	2508 <__modsi3+0x2c>

0000253c <__udivsi3>:
    253c:	000d883a 	mov	r6,zero
    2540:	00024001 	jmpi	2400 <udivmodsi4>

00002544 <__umodsi3>:
    2544:	01800044 	movi	r6,1
    2548:	00024001 	jmpi	2400 <udivmodsi4>

0000254c <__mulsi3>:
    254c:	20000a26 	beq	r4,zero,2578 <__mulsi3+0x2c>
    2550:	0007883a 	mov	r3,zero
    2554:	2080004c 	andi	r2,r4,1
    2558:	1005003a 	cmpeq	r2,r2,zero
    255c:	2008d07a 	srli	r4,r4,1
    2560:	1000011e 	bne	r2,zero,2568 <__mulsi3+0x1c>
    2564:	1947883a 	add	r3,r3,r5
    2568:	294b883a 	add	r5,r5,r5
    256c:	203ff91e 	bne	r4,zero,2554 <__mulsi3+0x8>
    2570:	1805883a 	mov	r2,r3
    2574:	f800283a 	ret
    2578:	0007883a 	mov	r3,zero
    257c:	1805883a 	mov	r2,r3
    2580:	f800283a 	ret
